Practice3/Counter99_tb.vcd
$date
  Tue Mar 31 12:17:59 2020
$end
$version
  GHDL v0
$end
$timescale
  1 fs
$end
$scope module standard $end
$upscope $end
$scope module counter99_tb $end
$var reg 1 ! ud $end
$var reg 1 " clk $end
$var reg 1 # clear $end
$var reg 1 $ preset $end
$var reg 8 % z[7:0] $end
$scope module fs0 $end
$var reg 1 & ud $end
$var reg 1 ' clk $end
$var reg 1 ( clear $end
$var reg 1 ) preset $end
$var reg 8 * z[7:0] $end
$var reg 4 + zint1[3:0] $end
$var reg 4 , zint2[3:0] $end
$var reg 1 - en2 $end
$scope module fs0 $end
$var reg 1 . ud $end
$var reg 1 / clk $end
$var reg 1 0 clear $end
$var reg 1 1 preset $end
$var reg 1 2 en $end
$var reg 4 3 z[3:0] $end
$var reg 4 4 clearint[3:0] $end
$var reg 4 5 presetint[3:0] $end
$var reg 4 6 zint[3:0] $end
$scope module fs0 $end
$var reg 1 7 ud $end
$var reg 1 8 clk $end
$var reg 4 9 clear[3:0] $end
$var reg 4 : preset[3:0] $end
$var reg 1 ; en $end
$var reg 4 < z[3:0] $end
$var reg 4 = intq[3:0] $end
$var reg 4 > intjk[3:0] $end
$var reg 4 ? intu[3:0] $end
$var reg 4 @ intd[3:0] $end
$var reg 4 A intqn[3:0] $end
$scope module f0 $end
$var reg 1 B clk $end
$var reg 1 C j $end
$var reg 1 D k $end
$var reg 1 E preset $end
$var reg 1 F clear $end
$var reg 1 G en $end
$var reg 1 H q $end
$var reg 1 I qn $end
$var reg 1 J intq $end
$upscope $end
$scope module f1 $end
$var reg 1 K clk $end
$var reg 1 L j $end
$var reg 1 M k $end
$var reg 1 N preset $end
$var reg 1 O clear $end
$var reg 1 P en $end
$var reg 1 Q q $end
$var reg 1 R qn $end
$var reg 1 S intq $end
$upscope $end
$scope module f2 $end
$var reg 1 T clk $end
$var reg 1 U j $end
$var reg 1 V k $end
$var reg 1 W preset $end
$var reg 1 X clear $end
$var reg 1 Y en $end
$var reg 1 Z q $end
$var reg 1 [ qn $end
$var reg 1 \ intq $end
$upscope $end
$scope module f3 $end
$var reg 1 ] clk $end
$var reg 1 ^ j $end
$var reg 1 _ k $end
$var reg 1 ` preset $end
$var reg 1 a clear $end
$var reg 1 b en $end
$var reg 1 c q $end
$var reg 1 d qn $end
$var reg 1 e intq $end
$upscope $end
$upscope $end
$upscope $end
$scope module fs1 $end
$var reg 1 f ud $end
$var reg 1 g clk $end
$var reg 1 h clear $end
$var reg 1 i preset $end
$var reg 1 j en $end
$var reg 4 k z[3:0] $end
$var reg 4 l clearint[3:0] $end
$var reg 4 m presetint[3:0] $end
$var reg 4 n zint[3:0] $end
$scope module fs0 $end
$var reg 1 o ud $end
$var reg 1 p clk $end
$var reg 4 q clear[3:0] $end
$var reg 4 r preset[3:0] $end
$var reg 1 s en $end
$var reg 4 t z[3:0] $end
$var reg 4 u intq[3:0] $end
$var reg 4 v intjk[3:0] $end
$var reg 4 w intu[3:0] $end
$var reg 4 x intd[3:0] $end
$var reg 4 y intqn[3:0] $end
$scope module f0 $end
$var reg 1 z clk $end
$var reg 1 { j $end
$var reg 1 | k $end
$var reg 1 } preset $end
$var reg 1 !" clear $end
$var reg 1 "" en $end
$var reg 1 #" q $end
$var reg 1 $" qn $end
$var reg 1 %" intq $end
$upscope $end
$scope module f1 $end
$var reg 1 &" clk $end
$var reg 1 '" j $end
$var reg 1 (" k $end
$var reg 1 )" preset $end
$var reg 1 *" clear $end
$var reg 1 +" en $end
$var reg 1 ," q $end
$var reg 1 -" qn $end
$var reg 1 ." intq $end
$upscope $end
$scope module f2 $end
$var reg 1 /" clk $end
$var reg 1 0" j $end
$var reg 1 1" k $end
$var reg 1 2" preset $end
$var reg 1 3" clear $end
$var reg 1 4" en $end
$var reg 1 5" q $end
$var reg 1 6" qn $end
$var reg 1 7" intq $end
$upscope $end
$scope module f3 $end
$var reg 1 8" clk $end
$var reg 1 9" j $end
$var reg 1 :" k $end
$var reg 1 ;" preset $end
$var reg 1 <" clear $end
$var reg 1 =" en $end
$var reg 1 >" q $end
$var reg 1 ?" qn $end
$var reg 1 @" intq $end
$upscope $end
$upscope $end
$upscope $end
$upscope $end
$upscope $end
$enddefinitions $end
#0
1!
0"
0#
1$
b00000000 %
1&
0'
0(
1)
b00000000 *
b0000 +
b0000 ,
0-
1.
0/
00
11
12
b0000 3
b0000 4
b1111 5
b0000 6
17
08
b0000 9
b1111 :
1;
b0000 <
b0000 =
b0001 >
b0001 ?
b0000 @
b1111 A
0B
1C
1D
1E
0F
1G
0H
1I
0J
0K
0L
0M
1N
0O
1P
0Q
1R
0S
0T
0U
0V
1W
0X
1Y
0Z
1[
0\
0]
0^
0_
1`
0a
1b
0c
1d
0e
1f
0g
0h
1i
0j
b0000 k
b0000 l
b1111 m
b0000 n
1o
0p
b0000 q
b1111 r
0s
b0000 t
b0000 u
b0001 v
b0001 w
b0000 x
b1111 y
0z
1{
1|
1}
0!"
0""
0#"
1$"
0%"
0&"
0'"
0("
1)"
0*"
0+"
0,"
1-"
0."
0/"
00"
01"
12"
03"
04"
05"
16"
07"
08"
09"
0:"
1;"
0<"
0="
0>"
1?"
0@"
#5000000
1"
1#
1'
1(
1/
10
b1111 4
18
b1111 9
1B
1F
1K
1O
1T
1X
1]
1a
1g
1h
b1111 l
1p
b1111 q
1z
1!"
1&"
1*"
1/"
13"
18"
1<"
#10000000
0"
0'
0/
08
0B
0K
0T
0]
0g
0p
0z
0&"
0/"
08"
#15000000
1"
b00000001 %
1'
b00000001 *
b0001 +
1/
b0001 3
b0001 6
18
b0001 <
b0001 =
b0011 >
b0011 ?
b1110 A
1B
1H
0I
1J
1K
1L
1M
1T
1]
1g
1p
1z
1&"
1/"
18"
#20000000
0"
0'
0/
08
0B
0K
0T
0]
0g
0p
0z
0&"
0/"
08"
#25000000
1"
b00000010 %
1'
b00000010 *
b0010 +
1/
b0010 3
b0010 6
18
b0010 <
b0010 =
b0001 >
b0001 ?
b1101 A
1B
0H
1I
0J
1K
0L
0M
1Q
0R
1S
1T
0U
0V
1]
1g
1p
1z
1&"
1/"
18"
#30000000
0"
0'
0/
08
0B
0K
0T
0]
0g
0p
0z
0&"
0/"
08"
#35000000
1"
b00000011 %
1'
b00000011 *
b0011 +
1/
b0011 3
b0011 6
18
b0011 <
b0011 =
b0111 >
b0111 ?
b1100 A
1B
1H
0I
1J
1K
1L
1M
1T
1U
1V
1]
1g
1p
1z
1&"
1/"
18"
#40000000
0"
0'
0/
08
0B
0K
0T
0]
0g
0p
0z
0&"
0/"
08"
#45000000
1"
b00000100 %
1'
b00000100 *
b0100 +
1/
b0100 3
b0100 6
18
b0100 <
b0100 =
b0001 >
b0001 ?
b1011 A
1B
0H
1I
0J
1K
0L
0M
0Q
1R
0S
1T
0U
0V
1Z
0[
1\
1]
0^
0_
1g
1p
1z
1&"
1/"
18"
#50000000
0"
0'
0/
08
0B
0K
0T
0]
0g
0p
0z
0&"
0/"
08"
#55000000
1"
b00000101 %
1'
b00000101 *
b0101 +
1/
b0101 3
b0101 6
18
b0101 <
b0101 =
b0011 >
b0011 ?
b1010 A
1B
1H
0I
1J
1K
1L
1M
1T
1]
1g
1p
1z
1&"
1/"
18"
#60000000
0"
0'
0/
08
0B
0K
0T
0]
0g
0p
0z
0&"
0/"
08"
#65000000
1"
b00000110 %
1'
b00000110 *
b0110 +
1/
b0110 3
b0110 6
18
b0110 <
b0110 =
b0001 >
b0001 ?
b1001 A
1B
0H
1I
0J
1K
0L
0M
1Q
0R
1S
1T
0U
0V
1]
0^
0_
1g
1p
1z
1&"
1/"
18"
#70000000
0"
0'
0/
08
0B
0K
0T
0]
0g
0p
0z
0&"
0/"
08"
#75000000
1"
b00000111 %
1'
b00000111 *
b0111 +
1/
b0111 3
b0111 6
18
b0111 <
b0111 =
b1111 >
b1111 ?
b1000 A
1B
1H
0I
1J
1K
1L
1M
1T
1U
1V
1]
1^
1_
1g
1p
1z
1&"
1/"
18"
#80000000
0"
0'
0/
08
0B
0K
0T
0]
0g
0p
0z
0&"
0/"
08"
#85000000
1"
b00001000 %
1'
b00001000 *
b1000 +
1/
b1000 3
b1000 6
18
b1000 <
b1000 =
b0001 >
b0001 ?
b0111 A
1B
0H
1I
0J
1K
0L
0M
0Q
1R
0S
1T
0U
0V
0Z
1[
0\
1]
0^
0_
1c
0d
1e
1g
1p
1z
1&"
1/"
18"
#90000000
0"
0'
0/
08
0B
0K
0T
0]
0g
0p
0z
0&"
0/"
08"
#95000000
1"
b00001001 %
1'
b00001001 *
b1001 +
1-
1/
b1001 3
b1001 6
18
b1001 <
b1001 =
b0011 >
b0011 ?
b0110 A
1B
1H
0I
1J
1K
1L
1M
1T
1]
1g
1j
1p
1s
1z
1""
1&"
1+"
1/"
14"
18"
1="
#100000000
0"
0'
0/
08
0B
0K
0T
0]
0g
0p
0z
0&"
0/"
08"
#105000000
0!
1"
b00010000 %
0&
1'
b00010000 *
b0000 +
b0001 ,
1-
0.
1/
b0000 3
b1111 4
b0000 6
07
18
b1111 9
b0000 <
b0000 =
b1111 >
b0000 ?
b1111 @
b1111 A
1B
1F
0H
1I
0J
1K
1L
1M
1O
0Q
1R
0S
1T
1U
1V
1X
1]
1^
1_
1a
0c
1d
0e
0f
1g
1j
b0001 k
b0001 n
0o
1p
1s
b0001 t
b0001 u
b0001 v
b0000 w
b0001 x
b1110 y
1z
1""
1#"
0$"
1%"
1&"
0'"
0("
1+"
1/"
00"
01"
14"
18"
09"
0:"
1="
#110000000
0"
0'
0/
08
0B
0K
0T
0]
0g
0p
0z
0&"
0/"
08"
#115000000
1"
b00001001 %
1'
b00001001 *
b1001 +
b0000 ,
0-
1/
b1001 3
b1111 4
b1111 5
b1001 6
18
b1111 9
b1111 :
b1001 <
b1001 =
b0001 >
b0001 @
b0110 A
1B
1E
1H
0I
1J
1K
0L
0M
1O
0Q
1R
0S
1T
0U
0V
1X
0Z
1[
0\
1]
0^
0_
1`
1c
0d
1e
1g
0j
b0000 k
b0000 n
1p
0s
b0000 t
b0000 u
b1111 v
b1111 x
b1111 y
1z
0""
0#"
1$"
0%"
1&"
1'"
1("
0+"
1/"
10"
11"
04"
18"
19"
1:"
0="
#120000000
0"
0'
0/
08
0B
0K
0T
0]
0g
0p
0z
0&"
0/"
08"
#125000000
1"
b00001000 %
1'
b00001000 *
b1000 +
1/
b1000 3
b1000 6
18
b1000 <
b1000 =
b1111 >
b1111 @
b0111 A
1B
0H
1I
0J
1K
1L
1M
1T
1U
1V
1]
1^
1_
1g
1p
1z
1&"
1/"
18"
#130000000
0"
0'
0/
08
0B
0K
0T
0]
0g
0p
0z
0&"
0/"
08"
#135000000
1"
b00000111 %
1'
b00000111 *
b0111 +
1/
b0111 3
b0111 6
18
b0111 <
b0111 =
b0001 >
b0001 @
b1000 A
1B
1H
0I
1J
1K
0L
0M
1Q
0R
1S
1T
0U
0V
1Z
0[
1\
1]
0^
0_
0c
1d
0e
1g
1p
1z
1&"
1/"
18"
#140000000
0"
0'
0/
08
0B
0K
0T
0]
0g
0p
0z
0&"
0/"
08"
#145000000
1"
b00000110 %
1'
b00000110 *
b0110 +
1/
b0110 3
b0110 6
18
b0110 <
b0110 =
b0011 >
b0011 @
b1001 A
1B
0H
1I
0J
1K
1L
1M
1T
1]
1g
1p
1z
1&"
1/"
18"
#150000000
0"
0'
0/
08
0B
0K
0T
0]
0g
0p
0z
0&"
0/"
08"
#155000000
1"
b00000101 %
1'
b00000101 *
b0101 +
1/
b0101 3
b0101 6
18
b0101 <
b0101 =
b0001 >
b0001 @
b1010 A
1B
1H
0I
1J
1K
0L
0M
0Q
1R
0S
1T
0U
0V
1]
1g
1p
1z
1&"
1/"
18"
#160000000
0"
0'
0/
08
0B
0K
0T
0]
0g
0p
0z
0&"
0/"
08"
#165000000
1"
b00000100 %
1'
b00000100 *
b0100 +
1/
b0100 3
b0100 6
18
b0100 <
b0100 =
b0111 >
b0111 @
b1011 A
1B
0H
1I
0J
1K
1L
1M
1T
1U
1V
1]
1g
1p
1z
1&"
1/"
18"
#170000000
0"
0'
0/
08
0B
0K
0T
0]
0g
0p
0z
0&"
0/"
08"
#175000000
1"
b00000011 %
1'
b00000011 *
b0011 +
1/
b0011 3
b0011 6
18
b0011 <
b0011 =
b0001 >
b0001 @
b1100 A
1B
1H
0I
1J
1K
0L
0M
1Q
0R
1S
1T
0U
0V
0Z
1[
0\
1]
0^
0_
1g
1p
1z
1&"
1/"
18"
#180000000
0"
0'
0/
08
0B
0K
0T
0]
0g
0p
0z
0&"
0/"
08"
#185000000
1"
b00000010 %
1'
b00000010 *
b0010 +
1/
b0010 3
b0010 6
18
b0010 <
b0010 =
b0011 >
b0011 @
b1101 A
1B
0H
1I
0J
1K
1L
1M
1T
1]
1g
1p
1z
1&"
1/"
18"
#190000000
0"
0'
0/
08
0B
0K
0T
0]
0g
0p
0z
0&"
0/"
08"
#195000000
1"
b00000001 %
1'
b00000001 *
b0001 +
1/
b0001 3
b0001 6
18
b0001 <
b0001 =
b0001 >
b0001 @
b1110 A
1B
1H
0I
1J
1K
0L
0M
0Q
1R
0S
1T
0U
0V
1]
0^
0_
1g
1p
1z
1&"
1/"
18"
#200000000
0"
0'
0/
08
0B
0K
0T
0]
0g
0p
0z
0&"
0/"
08"
#205000000
1"
b00000000 %
1'
b00000000 *
b0000 +
1-
1/
b0000 3
b0000 6
18
b0000 <
b0000 =
b1111 >
b1111 @
b1111 A
1B
0H
1I
0J
1K
1L
1M
1T
1U
1V
1]
1^
1_
1g
1j
1p
1s
1z
1""
1&"
1+"
1/"
14"
18"
1="
#210000000
0"
0'
0/
08
0B
0K
0T
0]
0g
0p
0z
0&"
0/"
08"
#215000000
1"
b10011001 %
1'
b10011001 *
b1001 +
b1001 ,
0-
1/
b1001 3
b1111 4
b1111 5
b1001 6
18
b1111 9
b1111 :
b1001 <
b1001 =
b0001 >
b0001 @
b0110 A
1B
1E
1H
0I
1J
1K
0L
0M
1O
0Q
1R
0S
1T
0U
0V
1X
0Z
1[
0\
1]
0^
0_
1`
1c
0d
1e
1g
0j
b1001 k
b1111 l
b1111 m
b1001 n
1p
b1111 q
b1111 r
0s
b1001 t
b1001 u
b0001 v
b0001 x
b0110 y
1z
1}
0""
1#"
0$"
1%"
1&"
0'"
0("
1*"
0+"
0,"
1-"
0."
1/"
00"
01"
13"
04"
05"
16"
07"
18"
09"
0:"
1;"
0="
1>"
0?"
1@"
#220000000
0"
0'
0/
08
0B
0K
0T
0]
0g
0p
0z
0&"
0/"
08"
#225000000
1"
b10011000 %
1'
b10011000 *
b1000 +
1/
b1000 3
b1000 6
18
b1000 <
b1000 =
b1111 >
b1111 @
b0111 A
1B
0H
1I
0J
1K
1L
1M
1T
1U
1V
1]
1^
1_
1g
1p
1z
1&"
1/"
18"
#230000000
0"
0'
0/
08
0B
0K
0T
0]
0g
0p
0z
0&"
0/"
08"
#235000000
1"
b10010111 %
1'
b10010111 *
b0111 +
1/
b0111 3
b0111 6
18
b0111 <
b0111 =
b0001 >
b0001 @
b1000 A
1B
1H
0I
1J
1K
0L
0M
1Q
0R
1S
1T
0U
0V
1Z
0[
1\
1]
0^
0_
0c
1d
0e
1g
1p
1z
1&"
1/"
18"
#240000000
0"
0'
0/
08
0B
0K
0T
0]
0g
0p
0z
0&"
0/"
08"
#245000000
1"
b10010110 %
1'
b10010110 *
b0110 +
1/
b0110 3
b0110 6
18
b0110 <
b0110 =
b0011 >
b0011 @
b1001 A
1B
0H
1I
0J
1K
1L
1M
1T
1]
1g
1p
1z
1&"
1/"
18"
#250000000
0"
0'
0/
08
0B
0K
0T
0]
0g
0p
0z
0&"
0/"
08"
#255000000
1"
b10010101 %
1'
b10010101 *
b0101 +
1/
b0101 3
b0101 6
18
b0101 <
b0101 =
b0001 >
b0001 @
b1010 A
1B
1H
0I
1J
1K
0L
0M
0Q
1R
0S
1T
0U
0V
1]
1g
1p
1z
1&"
1/"
18"
#260000000
0"
0'
0/
08
0B
0K
0T
0]
0g
0p
0z
0&"
0/"
08"
#265000000
1"
b10010100 %
1'
b10010100 *
b0100 +
1/
b0100 3
b0100 6
18
b0100 <
b0100 =
b0111 >
b0111 @
b1011 A
1B
0H
1I
0J
1K
1L
1M
1T
1U
1V
1]
1g
1p
1z
1&"
1/"
18"
#270000000
0"
0'
0/
08
0B
0K
0T
0]
0g
0p
0z
0&"
0/"
08"
#275000000
1"
b10010011 %
1'
b10010011 *
b0011 +
1/
b0011 3
b0011 6
18
b0011 <
b0011 =
b0001 >
b0001 @
b1100 A
1B
1H
0I
1J
1K
0L
0M
1Q
0R
1S
1T
0U
0V
0Z
1[
0\
1]
0^
0_
1g
1p
1z
1&"
1/"
18"
#280000000
0"
0'
0/
08
0B
0K
0T
0]
0g
0p
0z
0&"
0/"
08"
#285000000
1"
b10010010 %
1'
b10010010 *
b0010 +
1/
b0010 3
b0010 6
18
b0010 <
b0010 =
b0011 >
b0011 @
b1101 A
1B
0H
1I
0J
1K
1L
1M
1T
1]
1g
1p
1z
1&"
1/"
18"
#290000000
0"
0'
0/
08
0B
0K
0T
0]
0g
0p
0z
0&"
0/"
08"
#295000000
1"
b10010001 %
1'
b10010001 *
b0001 +
1/
b0001 3
b0001 6
18
b0001 <
b0001 =
b0001 >
b0001 @
b1110 A
1B
1H
0I
1J
1K
0L
0M
0Q
1R
0S
1T
0U
0V
1]
0^
0_
1g
1p
1z
1&"
1/"
18"
#300000000
0"
0'
0/
08
0B
0K
0T
0]
0g
0p
0z
0&"
0/"
08"
#305000000
1!
1"
b10010000 %
1&
1'
b10010000 *
b0000 +
1.
1/
b0000 3
b0000 6
17
18
b0000 <
b0000 =
b0001 >
b0001 ?
b0000 @
b1111 A
1B
0H
1I
0J
1K
0L
0M
1T
1]
1f
1g
1o
1p
b0011 v
b0011 w
b0000 x
1z
1&"
1'"
1("
1/"
18"
#310000000
0"
0'
0/
08
0B
0K
0T
0]
0g
0p
0z
0&"
0/"
08"
#315000000
1"
b10010001 %
1'
b10010001 *
b0001 +
1/
b0001 3
b0001 6
18
b0001 <
b0001 =
b0011 >
b0011 ?
b1110 A
1B
1H
0I
1J
1K
1L
1M
1T
1]
1g
1p
1z
1&"
1/"
18"
#320000000
0"
0'
0/
08
0B
0K
0T
0]
0g
0p
0z
0&"
0/"
08"
#325000000
1"
b10010010 %
1'
b10010010 *
b0010 +
1/
b0010 3
b0010 6
18
b0010 <
b0010 =
b0001 >
b0001 ?
b1101 A
1B
0H
1I
0J
1K
0L
0M
1Q
0R
1S
1T
0U
0V
1]
1g
1p
1z
1&"
1/"
18"
#330000000
0"
0'
0/
08
0B
0K
0T
0]
0g
0p
0z
0&"
0/"
08"
#335000000
1"
b10010011 %
1'
b10010011 *
b0011 +
1/
b0011 3
b0011 6
18
b0011 <
b0011 =
b0111 >
b0111 ?
b1100 A
1B
1H
0I
1J
1K
1L
1M
1T
1U
1V
1]
1g
1p
1z
1&"
1/"
18"
#340000000
0"
0'
0/
08
0B
0K
0T
0]
0g
0p
0z
0&"
0/"
08"
#345000000
1"
b10010100 %
1'
b10010100 *
b0100 +
1/
b0100 3
b0100 6
18
b0100 <
b0100 =
b0001 >
b0001 ?
b1011 A
1B
0H
1I
0J
1K
0L
0M
0Q
1R
0S
1T
0U
0V
1Z
0[
1\
1]
0^
0_
1g
1p
1z
1&"
1/"
18"
#350000000
0"
0'
0/
08
0B
0K
0T
0]
0g
0p
0z
0&"
0/"
08"
#355000000
1"
b10010101 %
1'
b10010101 *
b0101 +
1/
b0101 3
b0101 6
18
b0101 <
b0101 =
b0011 >
b0011 ?
b1010 A
1B
1H
0I
1J
1K
1L
1M
1T
1]
1g
1p
1z
1&"
1/"
18"
#360000000
0"
0'
0/
08
0B
0K
0T
0]
0g
0p
0z
0&"
0/"
08"
#365000000
1"
b10010110 %
1'
b10010110 *
b0110 +
1/
b0110 3
b0110 6
18
b0110 <
b0110 =
b0001 >
b0001 ?
b1001 A
1B
0H
1I
0J
1K
0L
0M
1Q
0R
1S
1T
0U
0V
1]
0^
0_
1g
1p
1z
1&"
1/"
18"
#370000000
0"
0'
0/
08
0B
0K
0T
0]
0g
0p
0z
0&"
0/"
08"
#375000000
1"
b10010111 %
1'
b10010111 *
b0111 +
1/
b0111 3
b0111 6
18
b0111 <
b0111 =
b1111 >
b1111 ?
b1000 A
1B
1H
0I
1J
1K
1L
1M
1T
1U
1V
1]
1^
1_
1g
1p
1z
1&"
1/"
18"
#380000000
0"
0'
0/
08
0B
0K
0T
0]
0g
0p
0z
0&"
0/"
08"
#385000000
1"
b10011000 %
1'
b10011000 *
b1000 +
1/
b1000 3
b1000 6
18
b1000 <
b1000 =
b0001 >
b0001 ?
b0111 A
1B
0H
1I
0J
1K
0L
0M
0Q
1R
0S
1T
0U
0V
0Z
1[
0\
1]
0^
0_
1c
0d
1e
1g
1p
1z
1&"
1/"
18"
#390000000
0"
0'
0/
08
0B
0K
0T
0]
0g
0p
0z
0&"
0/"
08"
#395000000
1"
b10011001 %
1'
b10011001 *
b1001 +
1-
1/
b1001 3
b1001 6
18
b1001 <
b1001 =
b0011 >
b0011 ?
b0110 A
1B
1H
0I
1J
1K
1L
1M
1T
1]
1g
1j
1p
1s
1z
1""
1&"
1+"
1/"
14"
18"
1="
#400000000
0"
0'
0/
08
0B
0K
0T
0]
0g
0p
0z
0&"
0/"
08"
#405000000
1"
b00000000 %
1'
b00000000 *
b0000 +
b0000 ,
0-
1/
b0000 3
b1111 4
b0000 6
18
b1111 9
b0000 <
b0000 =
b0001 >
b0001 ?
b1111 A
1B
1F
0H
1I
0J
1K
0L
0M
1O
0Q
1R
0S
1T
0U
0V
1X
1]
1a
0c
1d
0e
1g
0j
b0000 k
b1111 l
b0000 n
1p
b1111 q
0s
b0000 t
b0000 u
b0001 v
b0001 w
b1111 y
1z
1!"
0""
0#"
1$"
0%"
1&"
0'"
0("
1*"
0+"
0,"
1-"
0."
1/"
00"
01"
13"
04"
18"
1<"
0="
0>"
1?"
0@"
#410000000
0"
0'
0/
08
0B
0K
0T
0]
0g
0p
0z
0&"
0/"
08"
#415000000
0!
1"
b00000001 %
0&
1'
b00000001 *
b0001 +
0-
0.
1/
b0001 3
b0001 6
07
18
b0001 <
b0001 =
b0001 >
b0000 ?
b0001 @
b1110 A
1B
1H
0I
1J
1K
0L
0M
1T
0U
0V
1]
0^
0_
0f
1g
0j
0o
1p
0s
b1111 v
b0000 w
b1111 x
1z
0""
1&"
1'"
1("
0+"
1/"
10"
11"
04"
18"
19"
1:"
0="
