Practice3/CounterD_UD_tb.vcd
$date
  Mon Mar 30 18:39:41 2020
$end
$version
  GHDL v0
$end
$timescale
  1 fs
$end
$scope module standard $end
$upscope $end
$scope module counterd_ud_tb $end
$var reg 1 ! ud $end
$var reg 1 " clk $end
$var reg 1 # clear $end
$var reg 1 $ preset $end
$var reg 1 % en $end
$var reg 4 & z[3:0] $end
$scope module fs0 $end
$var reg 1 ' ud $end
$var reg 1 ( clk $end
$var reg 1 ) clear $end
$var reg 1 * preset $end
$var reg 1 + en $end
$var reg 4 , z[3:0] $end
$var reg 4 - clearint[3:0] $end
$var reg 4 . presetint[3:0] $end
$var reg 4 / zint[3:0] $end
$scope module fs0 $end
$var reg 1 0 ud $end
$var reg 1 1 clk $end
$var reg 4 2 clear[3:0] $end
$var reg 4 3 preset[3:0] $end
$var reg 1 4 en $end
$var reg 4 5 z[3:0] $end
$var reg 4 6 intq[3:0] $end
$var reg 4 7 intjk[3:0] $end
$var reg 4 8 intu[3:0] $end
$var reg 4 9 intd[3:0] $end
$var reg 4 : intqn[3:0] $end
$scope module f0 $end
$var reg 1 ; clk $end
$var reg 1 < j $end
$var reg 1 = k $end
$var reg 1 > preset $end
$var reg 1 ? clear $end
$var reg 1 @ en $end
$var reg 1 A q $end
$var reg 1 B qn $end
$var reg 1 C intq $end
$upscope $end
$scope module f1 $end
$var reg 1 D clk $end
$var reg 1 E j $end
$var reg 1 F k $end
$var reg 1 G preset $end
$var reg 1 H clear $end
$var reg 1 I en $end
$var reg 1 J q $end
$var reg 1 K qn $end
$var reg 1 L intq $end
$upscope $end
$scope module f2 $end
$var reg 1 M clk $end
$var reg 1 N j $end
$var reg 1 O k $end
$var reg 1 P preset $end
$var reg 1 Q clear $end
$var reg 1 R en $end
$var reg 1 S q $end
$var reg 1 T qn $end
$var reg 1 U intq $end
$upscope $end
$scope module f3 $end
$var reg 1 V clk $end
$var reg 1 W j $end
$var reg 1 X k $end
$var reg 1 Y preset $end
$var reg 1 Z clear $end
$var reg 1 [ en $end
$var reg 1 \ q $end
$var reg 1 ] qn $end
$var reg 1 ^ intq $end
$upscope $end
$upscope $end
$upscope $end
$upscope $end
$enddefinitions $end
#0
1!
0"
0#
1$
1%
b0000 &
1'
0(
0)
1*
1+
b0000 ,
b0000 -
b1111 .
b0000 /
10
01
b0000 2
b1111 3
14
b0000 5
b0000 6
b0001 7
b0001 8
b0000 9
b1111 :
0;
1<
1=
1>
0?
1@
0A
1B
0C
0D
0E
0F
1G
0H
1I
0J
1K
0L
0M
0N
0O
1P
0Q
1R
0S
1T
0U
0V
0W
0X
1Y
0Z
1[
0\
1]
0^
#5000000
1"
1#
1(
1)
b1111 -
11
b1111 2
1;
1?
1D
1H
1M
1Q
1V
1Z
#10000000
0"
0(
01
0;
0D
0M
0V
#15000000
1"
b0001 &
1(
b0001 ,
b0001 /
11
b0001 5
b0001 6
b0011 7
b0011 8
b1110 :
1;
1A
0B
1C
1D
1E
1F
1M
1V
#20000000
0"
0(
01
0;
0D
0M
0V
#25000000
1"
b0010 &
1(
b0010 ,
b0010 /
11
b0010 5
b0010 6
b0001 7
b0001 8
b1101 :
1;
0A
1B
0C
1D
0E
0F
1J
0K
1L
1M
0N
0O
1V
#30000000
0"
0(
01
0;
0D
0M
0V
#35000000
1"
b0011 &
1(
b0011 ,
b0011 /
11
b0011 5
b0011 6
b0111 7
b0111 8
b1100 :
1;
1A
0B
1C
1D
1E
1F
1M
1N
1O
1V
#40000000
0"
0(
01
0;
0D
0M
0V
#45000000
1"
b0100 &
1(
b0100 ,
b0100 /
11
b0100 5
b0100 6
b0001 7
b0001 8
b1011 :
1;
0A
1B
0C
1D
0E
0F
0J
1K
0L
1M
0N
0O
1S
0T
1U
1V
0W
0X
#50000000
0"
0(
01
0;
0D
0M
0V
#55000000
1"
b0101 &
1(
b0101 ,
b0101 /
11
b0101 5
b0101 6
b0011 7
b0011 8
b1010 :
1;
1A
0B
1C
1D
1E
1F
1M
1V
#60000000
0"
0(
01
0;
0D
0M
0V
#65000000
1"
b0110 &
1(
b0110 ,
b0110 /
11
b0110 5
b0110 6
b0001 7
b0001 8
b1001 :
1;
0A
1B
0C
1D
0E
0F
1J
0K
1L
1M
0N
0O
1V
0W
0X
#70000000
0"
0(
01
0;
0D
0M
0V
#75000000
1"
b0111 &
1(
b0111 ,
b0111 /
11
b0111 5
b0111 6
b1111 7
b1111 8
b1000 :
1;
1A
0B
1C
1D
1E
1F
1M
1N
1O
1V
1W
1X
#80000000
0"
0(
01
0;
0D
0M
0V
#85000000
1"
b1000 &
1(
b1000 ,
b1000 /
11
b1000 5
b1000 6
b0001 7
b0001 8
b0111 :
1;
0A
1B
0C
1D
0E
0F
0J
1K
0L
1M
0N
0O
0S
1T
0U
1V
0W
0X
1\
0]
1^
#90000000
0"
0(
01
0;
0D
0M
0V
#95000000
1"
b1001 &
1(
b1001 ,
b1001 /
11
b1001 5
b1001 6
b0011 7
b0011 8
b0110 :
1;
1A
0B
1C
1D
1E
1F
1M
1V
#100000000
0"
0(
01
0;
0D
0M
0V
#105000000
1"
b0000 &
1(
b0000 ,
b1111 -
b0000 /
11
b1111 2
b0000 5
b0000 6
b0001 7
b0001 8
b1111 :
1;
1?
0A
1B
0C
1D
0E
0F
1H
0J
1K
0L
1M
0N
0O
1Q
1V
1Z
0\
1]
0^
#110000000
0"
0(
01
0;
0D
0M
0V
#115000000
1"
b0001 &
1(
b0001 ,
b0001 /
11
b0001 5
b0001 6
b0011 7
b0011 8
b1110 :
1;
1A
0B
1C
1D
1E
1F
1M
1V
#120000000
0"
0(
01
0;
0D
0M
0V
#125000000
1"
b0010 &
1(
b0010 ,
b0010 /
11
b0010 5
b0010 6
b0001 7
b0001 8
b1101 :
1;
0A
1B
0C
1D
0E
0F
1J
0K
1L
1M
0N
0O
1V
#130000000
0"
0(
01
0;
0D
0M
0V
#135000000
1"
b0011 &
1(
b0011 ,
b0011 /
11
b0011 5
b0011 6
b0111 7
b0111 8
b1100 :
1;
1A
0B
1C
1D
1E
1F
1M
1N
1O
1V
#140000000
0"
0(
01
0;
0D
0M
0V
#145000000
1"
b0100 &
1(
b0100 ,
b0100 /
11
b0100 5
b0100 6
b0001 7
b0001 8
b1011 :
1;
0A
1B
0C
1D
0E
0F
0J
1K
0L
1M
0N
0O
1S
0T
1U
1V
0W
0X
#150000000
0"
0(
01
0;
0D
0M
0V
#155000000
1"
b0101 &
1(
b0101 ,
b0101 /
11
b0101 5
b0101 6
b0011 7
b0011 8
b1010 :
1;
1A
0B
1C
1D
1E
1F
1M
1V
#160000000
0"
0(
01
0;
0D
0M
0V
#165000000
1"
b0110 &
1(
b0110 ,
b0110 /
11
b0110 5
b0110 6
b0001 7
b0001 8
b1001 :
1;
0A
1B
0C
1D
0E
0F
1J
0K
1L
1M
0N
0O
1V
0W
0X
#170000000
0"
0(
01
0;
0D
0M
0V
#175000000
1"
b0111 &
1(
b0111 ,
b0111 /
11
b0111 5
b0111 6
b1111 7
b1111 8
b1000 :
1;
1A
0B
1C
1D
1E
1F
1M
1N
1O
1V
1W
1X
#180000000
0"
0(
01
0;
0D
0M
0V
#185000000
0!
1"
b1000 &
0'
1(
b1000 ,
b1000 /
00
11
b1000 5
b1000 6
b1111 7
b0000 8
b1111 9
b0111 :
1;
0A
1B
0C
1D
1E
1F
0J
1K
0L
1M
1N
1O
0S
1T
0U
1V
1W
1X
1\
0]
1^
#190000000
0"
0(
01
0;
0D
0M
0V
#195000000
1"
b0111 &
1(
b0111 ,
b0111 /
11
b0111 5
b0111 6
b0001 7
b0001 9
b1000 :
1;
1A
0B
1C
1D
0E
0F
1J
0K
1L
1M
0N
0O
1S
0T
1U
1V
0W
0X
0\
1]
0^
#200000000
0"
0(
01
0;
0D
0M
0V
#205000000
1"
b0110 &
1(
b0110 ,
b0110 /
11
b0110 5
b0110 6
b0011 7
b0011 9
b1001 :
1;
0A
1B
0C
1D
1E
1F
1M
1V
#210000000
0"
0(
01
0;
0D
0M
0V
#215000000
1"
b0101 &
1(
b0101 ,
b0101 /
11
b0101 5
b0101 6
b0001 7
b0001 9
b1010 :
1;
1A
0B
1C
1D
0E
0F
0J
1K
0L
1M
0N
0O
1V
#220000000
0"
0(
01
0;
0D
0M
0V
#225000000
1"
b0100 &
1(
b0100 ,
b0100 /
11
b0100 5
b0100 6
b0111 7
b0111 9
b1011 :
1;
0A
1B
0C
1D
1E
1F
1M
1N
1O
1V
#230000000
0"
0(
01
0;
0D
0M
0V
#235000000
1"
b0011 &
1(
b0011 ,
b0011 /
11
b0011 5
b0011 6
b0001 7
b0001 9
b1100 :
1;
1A
0B
1C
1D
0E
0F
1J
0K
1L
1M
0N
0O
0S
1T
0U
1V
0W
0X
#240000000
0"
0(
01
0;
0D
0M
0V
#245000000
1"
b0010 &
1(
b0010 ,
b0010 /
11
b0010 5
b0010 6
b0011 7
b0011 9
b1101 :
1;
0A
1B
0C
1D
1E
1F
1M
1V
#250000000
0"
0(
01
0;
0D
0M
0V
#255000000
1"
b0001 &
1(
b0001 ,
b0001 /
11
b0001 5
b0001 6
b0001 7
b0001 9
b1110 :
1;
1A
0B
1C
1D
0E
0F
0J
1K
0L
1M
0N
0O
1V
0W
0X
#260000000
0"
0(
01
0;
0D
0M
0V
#265000000
1"
b0000 &
1(
b0000 ,
b0000 /
11
b0000 5
b0000 6
b1111 7
b1111 9
b1111 :
1;
0A
1B
0C
1D
1E
1F
1M
1N
1O
1V
1W
1X
#270000000
0"
0(
01
0;
0D
0M
0V
#275000000
1"
b1001 &
1(
b1001 ,
b1111 -
b1111 .
b1001 /
11
b1111 2
b1111 3
b1001 5
b1001 6
b0001 7
b0001 9
b0110 :
1;
1>
1A
0B
1C
1D
0E
0F
1H
0J
1K
0L
1M
0N
0O
1Q
0S
1T
0U
1V
0W
0X
1Y
1\
0]
1^
#280000000
0"
0(
01
0;
0D
0M
0V
#285000000
1"
b1000 &
1(
b1000 ,
b1000 /
11
b1000 5
b1000 6
b1111 7
b1111 9
b0111 :
1;
0A
1B
0C
1D
1E
1F
1M
1N
1O
1V
1W
1X
#290000000
0"
0(
01
0;
0D
0M
0V
#295000000
1"
b0111 &
1(
b0111 ,
b0111 /
11
b0111 5
b0111 6
b0001 7
b0001 9
b1000 :
1;
1A
0B
1C
1D
0E
0F
1J
0K
1L
1M
0N
0O
1S
0T
1U
1V
0W
0X
0\
1]
0^
#300000000
0"
0(
01
0;
0D
0M
0V
#305000000
1"
b0110 &
1(
b0110 ,
b0110 /
11
b0110 5
b0110 6
b0011 7
b0011 9
b1001 :
1;
0A
1B
0C
1D
1E
1F
1M
1V
#310000000
0"
0(
01
0;
0D
0M
0V
#315000000
1"
b0101 &
1(
b0101 ,
b0101 /
11
b0101 5
b0101 6
b0001 7
b0001 9
b1010 :
1;
1A
0B
1C
1D
0E
0F
0J
1K
0L
1M
0N
0O
1V
#320000000
0"
0(
01
0;
0D
0M
0V
#325000000
1"
b0100 &
1(
b0100 ,
b0100 /
11
b0100 5
b0100 6
b0111 7
b0111 9
b1011 :
1;
0A
1B
0C
1D
1E
1F
1M
1N
1O
1V
#330000000
0"
0(
01
0;
0D
0M
0V
#335000000
1"
b0011 &
1(
b0011 ,
b0011 /
11
b0011 5
b0011 6
b0001 7
b0001 9
b1100 :
1;
1A
0B
1C
1D
0E
0F
1J
0K
1L
1M
0N
0O
0S
1T
0U
1V
0W
0X
#340000000
0"
0(
01
0;
0D
0M
0V
#345000000
1"
b0010 &
1(
b0010 ,
b0010 /
11
b0010 5
b0010 6
b0011 7
b0011 9
b1101 :
1;
0A
1B
0C
1D
1E
1F
1M
1V
#350000000
0"
0(
01
0;
0D
0M
0V
#355000000
1"
b0001 &
1(
b0001 ,
b0001 /
11
b0001 5
b0001 6
b0001 7
b0001 9
b1110 :
1;
1A
0B
1C
1D
0E
0F
0J
1K
0L
1M
0N
0O
1V
0W
0X
#360000000
0"
0(
01
0;
0D
0M
0V
#365000000
1"
b0000 &
1(
b0000 ,
b0000 /
11
b0000 5
b0000 6
b1111 7
b1111 9
b1111 :
1;
0A
1B
0C
1D
1E
1F
1M
1N
1O
1V
1W
1X
#370000000
0"
0(
01
0;
0D
0M
0V
#375000000
1"
b1001 &
1(
b1001 ,
b1111 -
b1111 .
b1001 /
11
b1111 2
b1111 3
b1001 5
b1001 6
b0001 7
b0001 9
b0110 :
1;
1>
1A
0B
1C
1D
0E
0F
1H
0J
1K
0L
1M
0N
0O
1Q
0S
1T
0U
1V
0W
0X
1Y
1\
0]
1^
#380000000
0"
0(
01
0;
0D
0M
0V
#385000000
1"
b1000 &
1(
b1000 ,
b1000 /
11
b1000 5
b1000 6
b1111 7
b1111 9
b0111 :
1;
0A
1B
0C
1D
1E
1F
1M
1N
1O
1V
1W
1X
#390000000
0"
0(
01
0;
0D
0M
0V
#395000000
1"
b0111 &
1(
b0111 ,
b0111 /
11
b0111 5
b0111 6
b0001 7
b0001 9
b1000 :
1;
1A
0B
1C
1D
0E
0F
1J
0K
1L
1M
0N
0O
1S
0T
1U
1V
0W
0X
0\
1]
0^
