Practice5/clock_tb.vcd
$date
  Fri May  8 23:05:31 2020
$end
$version
  GHDL v0
$end
$timescale
  1 fs
$end
$scope module standard $end
$upscope $end
$scope module numeric_bit $end
$upscope $end
$scope module clock_tb $end
$var reg 1 ! clk $end
$var reg 1 " clear $end
$var reg 1 # preset $end
$var reg 1 $ en $end
$var reg 8 % hours[7:0] $end
$var reg 8 & minutes[7:0] $end
$scope module fs0 $end
$var reg 1 ' clk $end
$var reg 1 ( clear $end
$var reg 1 ) preset $end
$var reg 1 * en $end
$var reg 8 + hours[7:0] $end
$var reg 8 , minutes[7:0] $end
$var reg 1 - rco_59 $end
$var reg 1 . nclk_59 $end
$scope module c1 $end
$var reg 1 / clk $end
$var reg 1 0 clear $end
$var reg 1 1 preset $end
$var reg 1 2 en $end
$var reg 1 3 rco $end
$var reg 1 4 nclk $end
$var reg 8 5 z[7:0] $end
$var reg 8 6 intq[7:0] $end
$var reg 4 7 set[3:0] $end
$var reg 1 8 enc5 $end
$var reg 1 9 clear0_5 $end
$var reg 1 : clear0_9 $end
$scope module c1 $end
$var reg 1 ; clk $end
$var reg 1 < clear $end
$var reg 4 = preset[3:0] $end
$var reg 1 > en $end
$var reg 4 ? z[3:0] $end
$var reg 4 @ intq4[3:0] $end
$var reg 1 A clear0_9 $end
$scope module b4 $end
$var reg 1 B clk $end
$var reg 1 C clear $end
$var reg 4 D preset[3:0] $end
$var reg 1 E en $end
$var reg 4 F z[3:0] $end
$var reg 4 G intq[3:0] $end
$var reg 4 H intjk[3:0] $end
$var reg 4 I intqn[3:0] $end
$scope module f0 $end
$var reg 1 J clk $end
$var reg 1 K j $end
$var reg 1 L k $end
$var reg 1 M preset $end
$var reg 1 N clear $end
$var reg 1 O en $end
$var reg 1 P q $end
$var reg 1 Q qn $end
$var reg 1 R intq $end
$upscope $end
$scope module f1 $end
$var reg 1 S clk $end
$var reg 1 T j $end
$var reg 1 U k $end
$var reg 1 V preset $end
$var reg 1 W clear $end
$var reg 1 X en $end
$var reg 1 Y q $end
$var reg 1 Z qn $end
$var reg 1 [ intq $end
$upscope $end
$scope module f2 $end
$var reg 1 \ clk $end
$var reg 1 ] j $end
$var reg 1 ^ k $end
$var reg 1 _ preset $end
$var reg 1 ` clear $end
$var reg 1 a en $end
$var reg 1 b q $end
$var reg 1 c qn $end
$var reg 1 d intq $end
$upscope $end
$scope module f3 $end
$var reg 1 e clk $end
$var reg 1 f j $end
$var reg 1 g k $end
$var reg 1 h preset $end
$var reg 1 i clear $end
$var reg 1 j en $end
$var reg 1 k q $end
$var reg 1 l qn $end
$var reg 1 m intq $end
$upscope $end
$upscope $end
$upscope $end
$scope module c0 $end
$var reg 1 n clk $end
$var reg 1 o clear $end
$var reg 4 p preset[3:0] $end
$var reg 1 q en $end
$var reg 4 r z[3:0] $end
$var reg 4 s intq4[3:0] $end
$var reg 1 t clear0_5 $end
$scope module b4 $end
$var reg 1 u clk $end
$var reg 1 v clear $end
$var reg 4 w preset[3:0] $end
$var reg 1 x en $end
$var reg 4 y z[3:0] $end
$var reg 4 z intq[3:0] $end
$var reg 4 { intjk[3:0] $end
$var reg 4 | intqn[3:0] $end
$scope module f0 $end
$var reg 1 } clk $end
$var reg 1 !" j $end
$var reg 1 "" k $end
$var reg 1 #" preset $end
$var reg 1 $" clear $end
$var reg 1 %" en $end
$var reg 1 &" q $end
$var reg 1 '" qn $end
$var reg 1 (" intq $end
$upscope $end
$scope module f1 $end
$var reg 1 )" clk $end
$var reg 1 *" j $end
$var reg 1 +" k $end
$var reg 1 ," preset $end
$var reg 1 -" clear $end
$var reg 1 ." en $end
$var reg 1 /" q $end
$var reg 1 0" qn $end
$var reg 1 1" intq $end
$upscope $end
$scope module f2 $end
$var reg 1 2" clk $end
$var reg 1 3" j $end
$var reg 1 4" k $end
$var reg 1 5" preset $end
$var reg 1 6" clear $end
$var reg 1 7" en $end
$var reg 1 8" q $end
$var reg 1 9" qn $end
$var reg 1 :" intq $end
$upscope $end
$scope module f3 $end
$var reg 1 ;" clk $end
$var reg 1 <" j $end
$var reg 1 =" k $end
$var reg 1 >" preset $end
$var reg 1 ?" clear $end
$var reg 1 @" en $end
$var reg 1 A" q $end
$var reg 1 B" qn $end
$var reg 1 C" intq $end
$upscope $end
$upscope $end
$upscope $end
$upscope $end
$scope module c0 $end
$var reg 1 D" clk $end
$var reg 1 E" clear $end
$var reg 1 F" preset $end
$var reg 1 G" en $end
$var reg 8 H" z[7:0] $end
$var reg 1 I" const1 $end
$var reg 4 J" intq4[3:0] $end
$var reg 1 K" intq1 $end
$var reg 4 L" set1[3:0] $end
$var reg 1 M" enff $end
$var reg 1 N" clear0_12 $end
$scope module b4 $end
$var reg 1 O" clk $end
$var reg 1 P" clear $end
$var reg 4 Q" preset[3:0] $end
$var reg 1 R" en $end
$var reg 4 S" z[3:0] $end
$var reg 4 T" intq4[3:0] $end
$var reg 1 U" clear0_9 $end
$scope module b4 $end
$var reg 1 V" clk $end
$var reg 1 W" clear $end
$var reg 4 X" preset[3:0] $end
$var reg 1 Y" en $end
$var reg 4 Z" z[3:0] $end
$var reg 4 [" intq[3:0] $end
$var reg 4 \" intjk[3:0] $end
$var reg 4 ]" intqn[3:0] $end
$scope module f0 $end
$var reg 1 ^" clk $end
$var reg 1 _" j $end
$var reg 1 `" k $end
$var reg 1 a" preset $end
$var reg 1 b" clear $end
$var reg 1 c" en $end
$var reg 1 d" q $end
$var reg 1 e" qn $end
$var reg 1 f" intq $end
$upscope $end
$scope module f1 $end
$var reg 1 g" clk $end
$var reg 1 h" j $end
$var reg 1 i" k $end
$var reg 1 j" preset $end
$var reg 1 k" clear $end
$var reg 1 l" en $end
$var reg 1 m" q $end
$var reg 1 n" qn $end
$var reg 1 o" intq $end
$upscope $end
$scope module f2 $end
$var reg 1 p" clk $end
$var reg 1 q" j $end
$var reg 1 r" k $end
$var reg 1 s" preset $end
$var reg 1 t" clear $end
$var reg 1 u" en $end
$var reg 1 v" q $end
$var reg 1 w" qn $end
$var reg 1 x" intq $end
$upscope $end
$scope module f3 $end
$var reg 1 y" clk $end
$var reg 1 z" j $end
$var reg 1 {" k $end
$var reg 1 |" preset $end
$var reg 1 }" clear $end
$var reg 1 !# en $end
$var reg 1 "# q $end
$var reg 1 ## qn $end
$var reg 1 $# intq $end
$upscope $end
$upscope $end
$upscope $end
$scope module f0 $end
$var reg 1 %# clk $end
$var reg 1 &# j $end
$var reg 1 '# k $end
$var reg 1 (# preset $end
$var reg 1 )# clear $end
$var reg 1 *# en $end
$var reg 1 +# q $end
$var reg 1 ,# qn $end
$var reg 1 -# intq $end
$upscope $end
$upscope $end
$upscope $end
$upscope $end
$enddefinitions $end
#0
0!
1"
1#
1$
b00000001 %
b00000000 &
0'
1(
1)
1*
b00000001 +
b00000000 ,
0-
1.
0/
10
11
12
03
14
b00000000 5
b00000000 6
b1111 7
08
19
1:
0;
1<
b1111 =
1>
b0000 ?
b0000 @
1A
0B
1C
b1111 D
1E
b0000 F
b0000 G
b0001 H
b1111 I
0J
1K
1L
1M
1N
1O
0P
1Q
0R
0S
0T
0U
1V
1W
1X
0Y
1Z
0[
0\
0]
0^
1_
1`
1a
0b
1c
0d
0e
0f
0g
1h
1i
1j
0k
1l
0m
0n
1o
b1111 p
0q
b0000 r
b0000 s
1t
0u
1v
b1111 w
0x
b0000 y
b0000 z
b0001 {
b1111 |
0}
1!"
1""
1#"
1$"
0%"
0&"
1'"
0("
0)"
0*"
0+"
1,"
1-"
0."
0/"
10"
01"
02"
03"
04"
15"
16"
07"
08"
19"
0:"
0;"
0<"
0="
1>"
1?"
0@"
0A"
1B"
0C"
0D"
1E"
1F"
0G"
b00000001 H"
1I"
b0001 J"
0K"
b1111 L"
0M"
1N"
0O"
1P"
b1111 Q"
0R"
b0001 S"
b0001 T"
1U"
0V"
1W"
b1111 X"
0Y"
b0001 Z"
b0001 ["
b0011 \"
b1110 ]"
0^"
1_"
1`"
1a"
1b"
0c"
1d"
0e"
1f"
0g"
1h"
1i"
1j"
1k"
0l"
0m"
1n"
0o"
0p"
0q"
0r"
1s"
1t"
0u"
0v"
1w"
0x"
0y"
0z"
0{"
1|"
1}"
0!#
0"#
1##
0$#
0%#
1&#
1'#
1(#
1)#
0*#
0+#
1,#
0-#
#5000000
#10000000
1!
b00000001 &
1'
b00000001 ,
1/
b00000001 5
b00000001 6
1;
b0001 ?
b0001 @
1B
b0001 F
b0001 G
b0011 H
b1110 I
1J
1P
0Q
1R
1S
1T
1U
1\
1e
1n
1u
1}
1)"
12"
1;"
1D"
1O"
1V"
1^"
1g"
1p"
1y"
1%#
#15000000
0!
0'
0/
0;
0B
0J
0S
0\
0e
0n
0u
0}
0)"
02"
0;"
0D"
0O"
0V"
0^"
0g"
0p"
0y"
0%#
#20000000
1!
b00000010 &
1'
b00000010 ,
1/
b00000010 5
b00000010 6
1;
b0010 ?
b0010 @
1B
b0010 F
b0010 G
b0001 H
b1101 I
1J
0P
1Q
0R
1S
0T
0U
1Y
0Z
1[
1\
1e
1n
1u
1}
1)"
12"
1;"
1D"
1O"
1V"
1^"
1g"
1p"
1y"
1%#
#25000000
0!
0'
0/
0;
0B
0J
0S
0\
0e
0n
0u
0}
0)"
02"
0;"
0D"
0O"
0V"
0^"
0g"
0p"
0y"
0%#
#30000000
1!
b00000011 &
1'
b00000011 ,
1/
b00000011 5
b00000011 6
1;
b0011 ?
b0011 @
1B
b0011 F
b0011 G
b0111 H
b1100 I
1J
1P
0Q
1R
1S
1T
1U
1\
1]
1^
1e
1n
1u
1}
1)"
12"
1;"
1D"
1O"
1V"
1^"
1g"
1p"
1y"
1%#
#35000000
0!
0'
0/
0;
0B
0J
0S
0\
0e
0n
0u
0}
0)"
02"
0;"
0D"
0O"
0V"
0^"
0g"
0p"
0y"
0%#
#40000000
1!
b00000100 &
1'
b00000100 ,
1/
b00000100 5
b00000100 6
1;
b0100 ?
b0100 @
1B
b0100 F
b0100 G
b0001 H
b1011 I
1J
0P
1Q
0R
1S
0T
0U
0Y
1Z
0[
1\
0]
0^
1b
0c
1d
1e
0f
0g
1n
1u
1}
1)"
12"
1;"
1D"
1O"
1V"
1^"
1g"
1p"
1y"
1%#
#45000000
0!
0'
0/
0;
0B
0J
0S
0\
0e
0n
0u
0}
0)"
02"
0;"
0D"
0O"
0V"
0^"
0g"
0p"
0y"
0%#
#50000000
1!
b00000101 &
1'
b00000101 ,
1/
b00000101 5
b00000101 6
1;
b0101 ?
b0101 @
1B
b0101 F
b0101 G
b0011 H
b1010 I
1J
1P
0Q
1R
1S
1T
1U
1\
1e
1n
1u
1}
1)"
12"
1;"
1D"
1O"
1V"
1^"
1g"
1p"
1y"
1%#
#55000000
0!
0'
0/
0;
0B
0J
0S
0\
0e
0n
0u
0}
0)"
02"
0;"
0D"
0O"
0V"
0^"
0g"
0p"
0y"
0%#
#60000000
1!
b00000110 &
1'
b00000110 ,
1/
b00000110 5
b00000110 6
1;
b0110 ?
b0110 @
1B
b0110 F
b0110 G
b0001 H
b1001 I
1J
0P
1Q
0R
1S
0T
0U
1Y
0Z
1[
1\
1e
1n
1u
1}
1)"
12"
1;"
1D"
1O"
1V"
1^"
1g"
1p"
1y"
1%#
#65000000
0!
0'
0/
0;
0B
0J
0S
0\
0e
0n
0u
0}
0)"
02"
0;"
0D"
0O"
0V"
0^"
0g"
0p"
0y"
0%#
#70000000
1!
b00000111 &
1'
b00000111 ,
1/
b00000111 5
b00000111 6
1;
b0111 ?
b0111 @
1B
b0111 F
b0111 G
b1111 H
b1000 I
1J
1P
0Q
1R
1S
1T
1U
1\
1]
1^
1e
1f
1g
1n
1u
1}
1)"
12"
1;"
1D"
1O"
1V"
1^"
1g"
1p"
1y"
1%#
#75000000
0!
0'
0/
0;
0B
0J
0S
0\
0e
0n
0u
0}
0)"
02"
0;"
0D"
0O"
0V"
0^"
0g"
0p"
0y"
0%#
#80000000
1!
b00001000 &
1'
b00001000 ,
1/
b00001000 5
b00001000 6
1;
b1000 ?
b1000 @
1B
b1000 F
b1000 G
b0001 H
b0111 I
1J
0P
1Q
0R
1S
0T
0U
0Y
1Z
0[
1\
0]
0^
0b
1c
0d
1e
0f
0g
1k
0l
1m
1n
1u
1}
1)"
12"
1;"
1D"
1O"
1V"
1^"
1g"
1p"
1y"
1%#
#85000000
0!
0'
0/
0;
0B
0J
0S
0\
0e
0n
0u
0}
0)"
02"
0;"
0D"
0O"
0V"
0^"
0g"
0p"
0y"
0%#
#90000000
1!
b00001001 &
1'
b00001001 ,
1/
b00001001 5
b00001001 6
18
1;
b1001 ?
b1001 @
1B
b1001 F
b1001 G
b0011 H
b0110 I
1J
1P
0Q
1R
1S
1T
1U
1\
1e
1n
1q
1u
1x
1}
1%"
1)"
1."
12"
17"
1;"
1@"
1D"
1O"
1V"
1^"
1g"
1p"
1y"
1%#
#95000000
0!
0'
0/
0;
0B
0J
0S
0\
0e
0n
0u
0}
0)"
02"
0;"
0D"
0O"
0V"
0^"
0g"
0p"
0y"
0%#
#100000000
1!
b00010000 &
1'
b00010000 ,
1/
b00010000 5
b00010000 6
08
1:
1;
1<
b0000 ?
b0000 @
1A
1B
1C
b0000 F
b0000 G
b0001 H
b1111 I
1J
1N
0P
1Q
0R
1S
0T
0U
1W
0Y
1Z
0[
1\
1`
1e
1i
0k
1l
0m
1n
0q
b0001 r
b0001 s
1u
0x
b0001 y
b0001 z
b0011 {
b1110 |
1}
0%"
1&"
0'"
1("
1)"
1*"
1+"
0."
12"
07"
1;"
0@"
1D"
1O"
1V"
1^"
1g"
1p"
1y"
1%#
#105000000
0!
0'
0/
0;
0B
0J
0S
0\
0e
0n
0u
0}
0)"
02"
0;"
0D"
0O"
0V"
0^"
0g"
0p"
0y"
0%#
#110000000
1!
b00010001 &
1'
b00010001 ,
1/
b00010001 5
b00010001 6
1;
b0001 ?
b0001 @
1B
b0001 F
b0001 G
b0011 H
b1110 I
1J
1P
0Q
1R
1S
1T
1U
1\
1e
1n
1u
1}
1)"
12"
1;"
1D"
1O"
1V"
1^"
1g"
1p"
1y"
1%#
#115000000
0!
0'
0/
0;
0B
0J
0S
0\
0e
0n
0u
0}
0)"
02"
0;"
0D"
0O"
0V"
0^"
0g"
0p"
0y"
0%#
#120000000
1!
b00010010 &
1'
b00010010 ,
1/
b00010010 5
b00010010 6
1;
b0010 ?
b0010 @
1B
b0010 F
b0010 G
b0001 H
b1101 I
1J
0P
1Q
0R
1S
0T
0U
1Y
0Z
1[
1\
1e
1n
1u
1}
1)"
12"
1;"
1D"
1O"
1V"
1^"
1g"
1p"
1y"
1%#
#125000000
0!
0'
0/
0;
0B
0J
0S
0\
0e
0n
0u
0}
0)"
02"
0;"
0D"
0O"
0V"
0^"
0g"
0p"
0y"
0%#
#130000000
1!
b00010011 &
1'
b00010011 ,
1/
b00010011 5
b00010011 6
1;
b0011 ?
b0011 @
1B
b0011 F
b0011 G
b0111 H
b1100 I
1J
1P
0Q
1R
1S
1T
1U
1\
1]
1^
1e
1n
1u
1}
1)"
12"
1;"
1D"
1O"
1V"
1^"
1g"
1p"
1y"
1%#
#135000000
0!
0'
0/
0;
0B
0J
0S
0\
0e
0n
0u
0}
0)"
02"
0;"
0D"
0O"
0V"
0^"
0g"
0p"
0y"
0%#
#140000000
1!
b00010100 &
1'
b00010100 ,
1/
b00010100 5
b00010100 6
1;
b0100 ?
b0100 @
1B
b0100 F
b0100 G
b0001 H
b1011 I
1J
0P
1Q
0R
1S
0T
0U
0Y
1Z
0[
1\
0]
0^
1b
0c
1d
1e
0f
0g
1n
1u
1}
1)"
12"
1;"
1D"
1O"
1V"
1^"
1g"
1p"
1y"
1%#
#145000000
0!
0'
0/
0;
0B
0J
0S
0\
0e
0n
0u
0}
0)"
02"
0;"
0D"
0O"
0V"
0^"
0g"
0p"
0y"
0%#
#150000000
1!
b00010101 &
1'
b00010101 ,
1/
b00010101 5
b00010101 6
1;
b0101 ?
b0101 @
1B
b0101 F
b0101 G
b0011 H
b1010 I
1J
1P
0Q
1R
1S
1T
1U
1\
1e
1n
1u
1}
1)"
12"
1;"
1D"
1O"
1V"
1^"
1g"
1p"
1y"
1%#
#155000000
0!
0'
0/
0;
0B
0J
0S
0\
0e
0n
0u
0}
0)"
02"
0;"
0D"
0O"
0V"
0^"
0g"
0p"
0y"
0%#
#160000000
1!
b00010110 &
1'
b00010110 ,
1/
b00010110 5
b00010110 6
1;
b0110 ?
b0110 @
1B
b0110 F
b0110 G
b0001 H
b1001 I
1J
0P
1Q
0R
1S
0T
0U
1Y
0Z
1[
1\
1e
1n
1u
1}
1)"
12"
1;"
1D"
1O"
1V"
1^"
1g"
1p"
1y"
1%#
#165000000
0!
0'
0/
0;
0B
0J
0S
0\
0e
0n
0u
0}
0)"
02"
0;"
0D"
0O"
0V"
0^"
0g"
0p"
0y"
0%#
#170000000
1!
b00010111 &
1'
b00010111 ,
1/
b00010111 5
b00010111 6
1;
b0111 ?
b0111 @
1B
b0111 F
b0111 G
b1111 H
b1000 I
1J
1P
0Q
1R
1S
1T
1U
1\
1]
1^
1e
1f
1g
1n
1u
1}
1)"
12"
1;"
1D"
1O"
1V"
1^"
1g"
1p"
1y"
1%#
#175000000
0!
0'
0/
0;
0B
0J
0S
0\
0e
0n
0u
0}
0)"
02"
0;"
0D"
0O"
0V"
0^"
0g"
0p"
0y"
0%#
#180000000
1!
b00011000 &
1'
b00011000 ,
1/
b00011000 5
b00011000 6
1;
b1000 ?
b1000 @
1B
b1000 F
b1000 G
b0001 H
b0111 I
1J
0P
1Q
0R
1S
0T
0U
0Y
1Z
0[
1\
0]
0^
0b
1c
0d
1e
0f
0g
1k
0l
1m
1n
1u
1}
1)"
12"
1;"
1D"
1O"
1V"
1^"
1g"
1p"
1y"
1%#
#185000000
0!
0'
0/
0;
0B
0J
0S
0\
0e
0n
0u
0}
0)"
02"
0;"
0D"
0O"
0V"
0^"
0g"
0p"
0y"
0%#
#190000000
1!
b00011001 &
1'
b00011001 ,
1/
b00011001 5
b00011001 6
18
1;
b1001 ?
b1001 @
1B
b1001 F
b1001 G
b0011 H
b0110 I
1J
1P
0Q
1R
1S
1T
1U
1\
1e
1n
1q
1u
1x
1}
1%"
1)"
1."
12"
17"
1;"
1@"
1D"
1O"
1V"
1^"
1g"
1p"
1y"
1%#
#195000000
0!
0'
0/
0;
0B
0J
0S
0\
0e
0n
0u
0}
0)"
02"
0;"
0D"
0O"
0V"
0^"
0g"
0p"
0y"
0%#
#200000000
1!
b00100000 &
1'
b00100000 ,
1/
b00100000 5
b00100000 6
08
1:
1;
1<
b0000 ?
b0000 @
1A
1B
1C
b0000 F
b0000 G
b0001 H
b1111 I
1J
1N
0P
1Q
0R
1S
0T
0U
1W
0Y
1Z
0[
1\
1`
1e
1i
0k
1l
0m
1n
0q
b0010 r
b0010 s
1u
0x
b0010 y
b0010 z
b0001 {
b1101 |
1}
0%"
0&"
1'"
0("
1)"
0*"
0+"
0."
1/"
00"
11"
12"
07"
1;"
0@"
1D"
1O"
1V"
1^"
1g"
1p"
1y"
1%#
#205000000
0!
0'
0/
0;
0B
0J
0S
0\
0e
0n
0u
0}
0)"
02"
0;"
0D"
0O"
0V"
0^"
0g"
0p"
0y"
0%#
#210000000
1!
b00100001 &
1'
b00100001 ,
1/
b00100001 5
b00100001 6
1;
b0001 ?
b0001 @
1B
b0001 F
b0001 G
b0011 H
b1110 I
1J
1P
0Q
1R
1S
1T
1U
1\
1e
1n
1u
1}
1)"
12"
1;"
1D"
1O"
1V"
1^"
1g"
1p"
1y"
1%#
#215000000
0!
0'
0/
0;
0B
0J
0S
0\
0e
0n
0u
0}
0)"
02"
0;"
0D"
0O"
0V"
0^"
0g"
0p"
0y"
0%#
#220000000
1!
b00100010 &
1'
b00100010 ,
1/
b00100010 5
b00100010 6
1;
b0010 ?
b0010 @
1B
b0010 F
b0010 G
b0001 H
b1101 I
1J
0P
1Q
0R
1S
0T
0U
1Y
0Z
1[
1\
1e
1n
1u
1}
1)"
12"
1;"
1D"
1O"
1V"
1^"
1g"
1p"
1y"
1%#
#225000000
0!
0'
0/
0;
0B
0J
0S
0\
0e
0n
0u
0}
0)"
02"
0;"
0D"
0O"
0V"
0^"
0g"
0p"
0y"
0%#
#230000000
1!
b00100011 &
1'
b00100011 ,
1/
b00100011 5
b00100011 6
1;
b0011 ?
b0011 @
1B
b0011 F
b0011 G
b0111 H
b1100 I
1J
1P
0Q
1R
1S
1T
1U
1\
1]
1^
1e
1n
1u
1}
1)"
12"
1;"
1D"
1O"
1V"
1^"
1g"
1p"
1y"
1%#
#235000000
0!
0'
0/
0;
0B
0J
0S
0\
0e
0n
0u
0}
0)"
02"
0;"
0D"
0O"
0V"
0^"
0g"
0p"
0y"
0%#
#240000000
1!
b00100100 &
1'
b00100100 ,
1/
b00100100 5
b00100100 6
1;
b0100 ?
b0100 @
1B
b0100 F
b0100 G
b0001 H
b1011 I
1J
0P
1Q
0R
1S
0T
0U
0Y
1Z
0[
1\
0]
0^
1b
0c
1d
1e
0f
0g
1n
1u
1}
1)"
12"
1;"
1D"
1O"
1V"
1^"
1g"
1p"
1y"
1%#
#245000000
0!
0'
0/
0;
0B
0J
0S
0\
0e
0n
0u
0}
0)"
02"
0;"
0D"
0O"
0V"
0^"
0g"
0p"
0y"
0%#
#250000000
1!
b00100101 &
1'
b00100101 ,
1/
b00100101 5
b00100101 6
1;
b0101 ?
b0101 @
1B
b0101 F
b0101 G
b0011 H
b1010 I
1J
1P
0Q
1R
1S
1T
1U
1\
1e
1n
1u
1}
1)"
12"
1;"
1D"
1O"
1V"
1^"
1g"
1p"
1y"
1%#
#255000000
0!
0'
0/
0;
0B
0J
0S
0\
0e
0n
0u
0}
0)"
02"
0;"
0D"
0O"
0V"
0^"
0g"
0p"
0y"
0%#
#260000000
1!
b00100110 &
1'
b00100110 ,
1/
b00100110 5
b00100110 6
1;
b0110 ?
b0110 @
1B
b0110 F
b0110 G
b0001 H
b1001 I
1J
0P
1Q
0R
1S
0T
0U
1Y
0Z
1[
1\
1e
1n
1u
1}
1)"
12"
1;"
1D"
1O"
1V"
1^"
1g"
1p"
1y"
1%#
#265000000
0!
0'
0/
0;
0B
0J
0S
0\
0e
0n
0u
0}
0)"
02"
0;"
0D"
0O"
0V"
0^"
0g"
0p"
0y"
0%#
#270000000
1!
b00100111 &
1'
b00100111 ,
1/
b00100111 5
b00100111 6
1;
b0111 ?
b0111 @
1B
b0111 F
b0111 G
b1111 H
b1000 I
1J
1P
0Q
1R
1S
1T
1U
1\
1]
1^
1e
1f
1g
1n
1u
1}
1)"
12"
1;"
1D"
1O"
1V"
1^"
1g"
1p"
1y"
1%#
#275000000
0!
0'
0/
0;
0B
0J
0S
0\
0e
0n
0u
0}
0)"
02"
0;"
0D"
0O"
0V"
0^"
0g"
0p"
0y"
0%#
#280000000
1!
b00101000 &
1'
b00101000 ,
1/
b00101000 5
b00101000 6
1;
b1000 ?
b1000 @
1B
b1000 F
b1000 G
b0001 H
b0111 I
1J
0P
1Q
0R
1S
0T
0U
0Y
1Z
0[
1\
0]
0^
0b
1c
0d
1e
0f
0g
1k
0l
1m
1n
1u
1}
1)"
12"
1;"
1D"
1O"
1V"
1^"
1g"
1p"
1y"
1%#
#285000000
0!
0'
0/
0;
0B
0J
0S
0\
0e
0n
0u
0}
0)"
02"
0;"
0D"
0O"
0V"
0^"
0g"
0p"
0y"
0%#
#290000000
1!
b00101001 &
1'
b00101001 ,
1/
b00101001 5
b00101001 6
18
1;
b1001 ?
b1001 @
1B
b1001 F
b1001 G
b0011 H
b0110 I
1J
1P
0Q
1R
1S
1T
1U
1\
1e
1n
1q
1u
1x
1}
1%"
1)"
1."
12"
17"
1;"
1@"
1D"
1O"
1V"
1^"
1g"
1p"
1y"
1%#
#295000000
0!
0'
0/
0;
0B
0J
0S
0\
0e
0n
0u
0}
0)"
02"
0;"
0D"
0O"
0V"
0^"
0g"
0p"
0y"
0%#
#300000000
1!
b00110000 &
1'
b00110000 ,
0.
1/
04
b00110000 5
b00110000 6
08
1:
1;
1<
b0000 ?
b0000 @
1A
1B
1C
b0000 F
b0000 G
b0001 H
b1111 I
1J
1N
0P
1Q
0R
1S
0T
0U
1W
0Y
1Z
0[
1\
1`
1e
1i
0k
1l
0m
1n
0q
b0011 r
b0011 s
1u
0x
b0011 y
b0011 z
b0111 {
b1100 |
1}
0%"
1&"
0'"
1("
1)"
1*"
1+"
0."
12"
13"
14"
07"
1;"
0@"
1D"
1O"
1V"
1^"
1g"
1p"
1y"
1%#
#305000000
0!
0'
0/
0;
0B
0J
0S
0\
0e
0n
0u
0}
0)"
02"
0;"
0D"
0O"
0V"
0^"
0g"
0p"
0y"
0%#
#310000000
1!
b00110001 &
1'
b00110001 ,
1/
b00110001 5
b00110001 6
1;
b0001 ?
b0001 @
1B
b0001 F
b0001 G
b0011 H
b1110 I
1J
1P
0Q
1R
1S
1T
1U
1\
1e
1n
1u
1}
1)"
12"
1;"
1D"
1O"
1V"
1^"
1g"
1p"
1y"
1%#
#315000000
0!
0'
0/
0;
0B
0J
0S
0\
0e
0n
0u
0}
0)"
02"
0;"
0D"
0O"
0V"
0^"
0g"
0p"
0y"
0%#
#320000000
1!
b00110010 &
1'
b00110010 ,
1/
b00110010 5
b00110010 6
1;
b0010 ?
b0010 @
1B
b0010 F
b0010 G
b0001 H
b1101 I
1J
0P
1Q
0R
1S
0T
0U
1Y
0Z
1[
1\
1e
1n
1u
1}
1)"
12"
1;"
1D"
1O"
1V"
1^"
1g"
1p"
1y"
1%#
#325000000
0!
0'
0/
0;
0B
0J
0S
0\
0e
0n
0u
0}
0)"
02"
0;"
0D"
0O"
0V"
0^"
0g"
0p"
0y"
0%#
#330000000
1!
b00110011 &
1'
b00110011 ,
1/
b00110011 5
b00110011 6
1;
b0011 ?
b0011 @
1B
b0011 F
b0011 G
b0111 H
b1100 I
1J
1P
0Q
1R
1S
1T
1U
1\
1]
1^
1e
1n
1u
1}
1)"
12"
1;"
1D"
1O"
1V"
1^"
1g"
1p"
1y"
1%#
#335000000
0!
0'
0/
0;
0B
0J
0S
0\
0e
0n
0u
0}
0)"
02"
0;"
0D"
0O"
0V"
0^"
0g"
0p"
0y"
0%#
#340000000
1!
b00110100 &
1'
b00110100 ,
1/
b00110100 5
b00110100 6
1;
b0100 ?
b0100 @
1B
b0100 F
b0100 G
b0001 H
b1011 I
1J
0P
1Q
0R
1S
0T
0U
0Y
1Z
0[
1\
0]
0^
1b
0c
1d
1e
0f
0g
1n
1u
1}
1)"
12"
1;"
1D"
1O"
1V"
1^"
1g"
1p"
1y"
1%#
#345000000
0!
0'
0/
0;
0B
0J
0S
0\
0e
0n
0u
0}
0)"
02"
0;"
0D"
0O"
0V"
0^"
0g"
0p"
0y"
0%#
#350000000
1!
b00110101 &
1'
b00110101 ,
1/
b00110101 5
b00110101 6
1;
b0101 ?
b0101 @
1B
b0101 F
b0101 G
b0011 H
b1010 I
1J
1P
0Q
1R
1S
1T
1U
1\
1e
1n
1u
1}
1)"
12"
1;"
1D"
1O"
1V"
1^"
1g"
1p"
1y"
1%#
#355000000
0!
0'
0/
0;
0B
0J
0S
0\
0e
0n
0u
0}
0)"
02"
0;"
0D"
0O"
0V"
0^"
0g"
0p"
0y"
0%#
#360000000
1!
b00110110 &
1'
b00110110 ,
1/
b00110110 5
b00110110 6
1;
b0110 ?
b0110 @
1B
b0110 F
b0110 G
b0001 H
b1001 I
1J
0P
1Q
0R
1S
0T
0U
1Y
0Z
1[
1\
1e
1n
1u
1}
1)"
12"
1;"
1D"
1O"
1V"
1^"
1g"
1p"
1y"
1%#
#365000000
0!
0'
0/
0;
0B
0J
0S
0\
0e
0n
0u
0}
0)"
02"
0;"
0D"
0O"
0V"
0^"
0g"
0p"
0y"
0%#
#370000000
1!
b00110111 &
1'
b00110111 ,
1/
b00110111 5
b00110111 6
1;
b0111 ?
b0111 @
1B
b0111 F
b0111 G
b1111 H
b1000 I
1J
1P
0Q
1R
1S
1T
1U
1\
1]
1^
1e
1f
1g
1n
1u
1}
1)"
12"
1;"
1D"
1O"
1V"
1^"
1g"
1p"
1y"
1%#
#375000000
0!
0'
0/
0;
0B
0J
0S
0\
0e
0n
0u
0}
0)"
02"
0;"
0D"
0O"
0V"
0^"
0g"
0p"
0y"
0%#
#380000000
1!
b00111000 &
1'
b00111000 ,
1/
b00111000 5
b00111000 6
1;
b1000 ?
b1000 @
1B
b1000 F
b1000 G
b0001 H
b0111 I
1J
0P
1Q
0R
1S
0T
0U
0Y
1Z
0[
1\
0]
0^
0b
1c
0d
1e
0f
0g
1k
0l
1m
1n
1u
1}
1)"
12"
1;"
1D"
1O"
1V"
1^"
1g"
1p"
1y"
1%#
#385000000
0!
0'
0/
0;
0B
0J
0S
0\
0e
0n
0u
0}
0)"
02"
0;"
0D"
0O"
0V"
0^"
0g"
0p"
0y"
0%#
#390000000
1!
b00111001 &
1'
b00111001 ,
1/
b00111001 5
b00111001 6
18
1;
b1001 ?
b1001 @
1B
b1001 F
b1001 G
b0011 H
b0110 I
1J
1P
0Q
1R
1S
1T
1U
1\
1e
1n
1q
1u
1x
1}
1%"
1)"
1."
12"
17"
1;"
1@"
1D"
1O"
1V"
1^"
1g"
1p"
1y"
1%#
#395000000
0!
0'
0/
0;
0B
0J
0S
0\
0e
0n
0u
0}
0)"
02"
0;"
0D"
0O"
0V"
0^"
0g"
0p"
0y"
0%#
