Practice5/Counter1_12_tb.vcd
$date
  Fri May  1 21:14:05 2020
$end
$version
  GHDL v0
$end
$timescale
  1 fs
$end
$scope module standard $end
$upscope $end
$scope module counter1_12_tb $end
$var reg 1 ! clk $end
$var reg 1 " clear $end
$var reg 1 # preset $end
$var reg 1 $ en $end
$var reg 5 % z[4:0] $end
$scope module fs0 $end
$var reg 1 & clk $end
$var reg 1 ' clear $end
$var reg 1 ( preset $end
$var reg 1 ) en $end
$var reg 5 * z[4:0] $end
$var reg 1 + const1 $end
$var reg 4 , intq4[3:0] $end
$var reg 1 - intq1 $end
$var reg 4 . set1[3:0] $end
$var reg 1 / enff $end
$var reg 1 0 clear0_12 $end
$scope module b4 $end
$var reg 1 1 clk $end
$var reg 1 2 clear $end
$var reg 4 3 preset[3:0] $end
$var reg 1 4 en $end
$var reg 4 5 z[3:0] $end
$var reg 4 6 intq4[3:0] $end
$var reg 1 7 clear0_9 $end
$scope module b4 $end
$var reg 1 8 clk $end
$var reg 1 9 clear $end
$var reg 4 : preset[3:0] $end
$var reg 1 ; en $end
$var reg 4 < z[3:0] $end
$var reg 4 = intq[3:0] $end
$var reg 4 > intjk[3:0] $end
$var reg 4 ? intqn[3:0] $end
$scope module f0 $end
$var reg 1 @ clk $end
$var reg 1 A j $end
$var reg 1 B k $end
$var reg 1 C preset $end
$var reg 1 D clear $end
$var reg 1 E en $end
$var reg 1 F q $end
$var reg 1 G qn $end
$var reg 1 H intq $end
$upscope $end
$scope module f1 $end
$var reg 1 I clk $end
$var reg 1 J j $end
$var reg 1 K k $end
$var reg 1 L preset $end
$var reg 1 M clear $end
$var reg 1 N en $end
$var reg 1 O q $end
$var reg 1 P qn $end
$var reg 1 Q intq $end
$upscope $end
$scope module f2 $end
$var reg 1 R clk $end
$var reg 1 S j $end
$var reg 1 T k $end
$var reg 1 U preset $end
$var reg 1 V clear $end
$var reg 1 W en $end
$var reg 1 X q $end
$var reg 1 Y qn $end
$var reg 1 Z intq $end
$upscope $end
$scope module f3 $end
$var reg 1 [ clk $end
$var reg 1 \ j $end
$var reg 1 ] k $end
$var reg 1 ^ preset $end
$var reg 1 _ clear $end
$var reg 1 ` en $end
$var reg 1 a q $end
$var reg 1 b qn $end
$var reg 1 c intq $end
$upscope $end
$upscope $end
$upscope $end
$scope module f0 $end
$var reg 1 d clk $end
$var reg 1 e j $end
$var reg 1 f k $end
$var reg 1 g preset $end
$var reg 1 h clear $end
$var reg 1 i en $end
$var reg 1 j q $end
$var reg 1 k qn $end
$var reg 1 l intq $end
$upscope $end
$upscope $end
$upscope $end
$enddefinitions $end
#0
0!
1"
1#
1$
b00001 %
0&
1'
1(
1)
b00001 *
1+
b0001 ,
0-
b1111 .
0/
10
01
12
b1111 3
14
b0001 5
b0001 6
17
08
19
b1111 :
1;
b0001 <
b0001 =
b0011 >
b1110 ?
0@
1A
1B
1C
1D
1E
1F
0G
1H
0I
1J
1K
1L
1M
1N
0O
1P
0Q
0R
0S
0T
1U
1V
1W
0X
1Y
0Z
0[
0\
0]
1^
1_
1`
0a
1b
0c
0d
1e
1f
1g
1h
0i
0j
1k
0l
#5000000
#10000000
1!
b00010 %
1&
b00010 *
b0010 ,
11
b0010 5
b0010 6
18
b0010 <
b0010 =
b0001 >
b1101 ?
1@
0F
1G
0H
1I
0J
0K
1O
0P
1Q
1R
1[
1d
#15000000
0!
0&
01
08
0@
0I
0R
0[
0d
#20000000
1!
b00011 %
1&
b00011 *
b0011 ,
11
b0011 5
b0011 6
18
b0011 <
b0011 =
b0111 >
b1100 ?
1@
1F
0G
1H
1I
1J
1K
1R
1S
1T
1[
1d
#25000000
0!
0&
01
08
0@
0I
0R
0[
0d
#30000000
1!
b00100 %
1&
b00100 *
b0100 ,
11
b0100 5
b0100 6
18
b0100 <
b0100 =
b0001 >
b1011 ?
1@
0F
1G
0H
1I
0J
0K
0O
1P
0Q
1R
0S
0T
1X
0Y
1Z
1[
0\
0]
1d
#35000000
0!
0&
01
08
0@
0I
0R
0[
0d
#40000000
1!
b00101 %
1&
b00101 *
b0101 ,
11
b0101 5
b0101 6
18
b0101 <
b0101 =
b0011 >
b1010 ?
1@
1F
0G
1H
1I
1J
1K
1R
1[
1d
#45000000
0!
0&
01
08
0@
0I
0R
0[
0d
#50000000
1!
b00110 %
1&
b00110 *
b0110 ,
11
b0110 5
b0110 6
18
b0110 <
b0110 =
b0001 >
b1001 ?
1@
0F
1G
0H
1I
0J
0K
1O
0P
1Q
1R
1[
1d
#55000000
0!
0&
01
08
0@
0I
0R
0[
0d
#60000000
1!
b00111 %
1&
b00111 *
b0111 ,
11
b0111 5
b0111 6
18
b0111 <
b0111 =
b1111 >
b1000 ?
1@
1F
0G
1H
1I
1J
1K
1R
1S
1T
1[
1\
1]
1d
#65000000
0!
0&
01
08
0@
0I
0R
0[
0d
#70000000
1!
b01000 %
1&
b01000 *
b1000 ,
11
b1000 5
b1000 6
18
b1000 <
b1000 =
b0001 >
b0111 ?
1@
0F
1G
0H
1I
0J
0K
0O
1P
0Q
1R
0S
0T
0X
1Y
0Z
1[
0\
0]
1a
0b
1c
1d
#75000000
0!
0&
01
08
0@
0I
0R
0[
0d
#80000000
1!
b01001 %
1&
b01001 *
b1001 ,
1/
11
b1001 5
b1001 6
18
b1001 <
b1001 =
b0011 >
b0110 ?
1@
1F
0G
1H
1I
1J
1K
1R
1[
1d
1i
#85000000
0!
0&
01
08
0@
0I
0R
0[
0d
#90000000
1!
b10000 %
1&
b10000 *
b0000 ,
1-
0/
11
b0000 5
b0000 6
17
18
19
b0000 <
b0000 =
b0001 >
b1111 ?
1@
1D
0F
1G
0H
1I
0J
0K
1M
0O
1P
0Q
1R
1V
1[
1_
0a
1b
0c
1d
0i
1j
0k
1l
#95000000
0!
0&
01
08
0@
0I
0R
0[
0d
#100000000
1!
b10001 %
1&
b10001 *
b0001 ,
11
b0001 5
b0001 6
18
b0001 <
b0001 =
b0011 >
b1110 ?
1@
1F
0G
1H
1I
1J
1K
1R
1[
1d
#105000000
0!
0&
01
08
0@
0I
0R
0[
0d
#110000000
1!
b10010 %
1&
b10010 *
b0010 ,
11
b0010 5
b0010 6
18
b0010 <
b0010 =
b0001 >
b1101 ?
1@
0F
1G
0H
1I
0J
0K
1O
0P
1Q
1R
1[
1d
#115000000
0!
0&
01
08
0@
0I
0R
0[
0d
#120000000
1!
b00001 %
1&
b00001 *
b0001 ,
0-
b1111 .
10
11
12
b1111 3
b0001 5
b0001 6
17
18
19
b1111 :
b0001 <
b0001 =
b0011 >
b1110 ?
1@
1C
1D
1F
0G
1H
1I
1J
1K
1M
0O
1P
0Q
1R
0S
0T
1V
1[
1_
1d
1h
0j
1k
0l
#125000000
0!
0&
01
08
0@
0I
0R
0[
0d
#130000000
1!
b00010 %
1&
b00010 *
b0010 ,
11
b0010 5
b0010 6
18
b0010 <
b0010 =
b0001 >
b1101 ?
1@
0F
1G
0H
1I
0J
0K
1O
0P
1Q
1R
1[
1d
#135000000
0!
0&
01
08
0@
0I
0R
0[
0d
#140000000
1!
b00011 %
1&
b00011 *
b0011 ,
11
b0011 5
b0011 6
18
b0011 <
b0011 =
b0111 >
b1100 ?
1@
1F
0G
1H
1I
1J
1K
1R
1S
1T
1[
1d
#145000000
0!
0&
01
08
0@
0I
0R
0[
0d
#150000000
1!
b00100 %
1&
b00100 *
b0100 ,
11
b0100 5
b0100 6
18
b0100 <
b0100 =
b0001 >
b1011 ?
1@
0F
1G
0H
1I
0J
0K
0O
1P
0Q
1R
0S
0T
1X
0Y
1Z
1[
0\
0]
1d
#155000000
0!
0&
01
08
0@
0I
0R
0[
0d
#160000000
1!
b00101 %
1&
b00101 *
b0101 ,
11
b0101 5
b0101 6
18
b0101 <
b0101 =
b0011 >
b1010 ?
1@
1F
0G
1H
1I
1J
1K
1R
1[
1d
#165000000
0!
0&
01
08
0@
0I
0R
0[
0d
#170000000
1!
b00110 %
1&
b00110 *
b0110 ,
11
b0110 5
b0110 6
18
b0110 <
b0110 =
b0001 >
b1001 ?
1@
0F
1G
0H
1I
0J
0K
1O
0P
1Q
1R
1[
1d
#175000000
0!
0&
01
08
0@
0I
0R
0[
0d
#180000000
1!
b00111 %
1&
b00111 *
b0111 ,
11
b0111 5
b0111 6
18
b0111 <
b0111 =
b1111 >
b1000 ?
1@
1F
0G
1H
1I
1J
1K
1R
1S
1T
1[
1\
1]
1d
#185000000
0!
0&
01
08
0@
0I
0R
0[
0d
#190000000
1!
b01000 %
1&
b01000 *
b1000 ,
11
b1000 5
b1000 6
18
b1000 <
b1000 =
b0001 >
b0111 ?
1@
0F
1G
0H
1I
0J
0K
0O
1P
0Q
1R
0S
0T
0X
1Y
0Z
1[
0\
0]
1a
0b
1c
1d
#195000000
0!
0&
01
08
0@
0I
0R
0[
0d
#200000000
1!
b01001 %
1&
b01001 *
b1001 ,
1/
11
b1001 5
b1001 6
18
b1001 <
b1001 =
b0011 >
b0110 ?
1@
1F
0G
1H
1I
1J
1K
1R
1[
1d
1i
#205000000
0!
0&
01
08
0@
0I
0R
0[
0d
#210000000
1!
b10000 %
1&
b10000 *
b0000 ,
1-
0/
11
b0000 5
b0000 6
17
18
19
b0000 <
b0000 =
b0001 >
b1111 ?
1@
1D
0F
1G
0H
1I
0J
0K
1M
0O
1P
0Q
1R
1V
1[
1_
0a
1b
0c
1d
0i
1j
0k
1l
#215000000
0!
0&
01
08
0@
0I
0R
0[
0d
#220000000
1!
b10001 %
1&
b10001 *
b0001 ,
11
b0001 5
b0001 6
18
b0001 <
b0001 =
b0011 >
b1110 ?
1@
1F
0G
1H
1I
1J
1K
1R
1[
1d
#225000000
0!
0&
01
08
0@
0I
0R
0[
0d
#230000000
1!
b10010 %
1&
b10010 *
b0010 ,
11
b0010 5
b0010 6
18
b0010 <
b0010 =
b0001 >
b1101 ?
1@
0F
1G
0H
1I
0J
0K
1O
0P
1Q
1R
1[
1d
#235000000
0!
0&
01
08
0@
0I
0R
0[
0d
#240000000
1!
b00001 %
1&
b00001 *
b0001 ,
0-
b1111 .
10
11
12
b1111 3
b0001 5
b0001 6
17
18
19
b1111 :
b0001 <
b0001 =
b0011 >
b1110 ?
1@
1C
1D
1F
0G
1H
1I
1J
1K
1M
0O
1P
0Q
1R
0S
0T
1V
1[
1_
1d
1h
0j
1k
0l
#245000000
0!
0&
01
08
0@
0I
0R
0[
0d
#250000000
1!
b00010 %
1&
b00010 *
b0010 ,
11
b0010 5
b0010 6
18
b0010 <
b0010 =
b0001 >
b1101 ?
1@
0F
1G
0H
1I
0J
0K
1O
0P
1Q
1R
1[
1d
#255000000
0!
0&
01
08
0@
0I
0R
0[
0d
#260000000
1!
b00011 %
1&
b00011 *
b0011 ,
11
b0011 5
b0011 6
18
b0011 <
b0011 =
b0111 >
b1100 ?
1@
1F
0G
1H
1I
1J
1K
1R
1S
1T
1[
1d
#265000000
0!
0&
01
08
0@
0I
0R
0[
0d
#270000000
1!
b00100 %
1&
b00100 *
b0100 ,
11
b0100 5
b0100 6
18
b0100 <
b0100 =
b0001 >
b1011 ?
1@
0F
1G
0H
1I
0J
0K
0O
1P
0Q
1R
0S
0T
1X
0Y
1Z
1[
0\
0]
1d
#275000000
0!
0&
01
08
0@
0I
0R
0[
0d
#280000000
1!
b00101 %
1&
b00101 *
b0101 ,
11
b0101 5
b0101 6
18
b0101 <
b0101 =
b0011 >
b1010 ?
1@
1F
0G
1H
1I
1J
1K
1R
1[
1d
#285000000
0!
0&
01
08
0@
0I
0R
0[
0d
#290000000
1!
b00110 %
1&
b00110 *
b0110 ,
11
b0110 5
b0110 6
18
b0110 <
b0110 =
b0001 >
b1001 ?
1@
0F
1G
0H
1I
0J
0K
1O
0P
1Q
1R
1[
1d
#295000000
0!
0&
01
08
0@
0I
0R
0[
0d
#300000000
1!
b00111 %
1&
b00111 *
b0111 ,
11
b0111 5
b0111 6
18
b0111 <
b0111 =
b1111 >
b1000 ?
1@
1F
0G
1H
1I
1J
1K
1R
1S
1T
1[
1\
1]
1d
#305000000
0!
0&
01
08
0@
0I
0R
0[
0d
#310000000
1!
b01000 %
1&
b01000 *
b1000 ,
11
b1000 5
b1000 6
18
b1000 <
b1000 =
b0001 >
b0111 ?
1@
0F
1G
0H
1I
0J
0K
0O
1P
0Q
1R
0S
0T
0X
1Y
0Z
1[
0\
0]
1a
0b
1c
1d
#315000000
0!
0&
01
08
0@
0I
0R
0[
0d
#320000000
1!
b01001 %
1&
b01001 *
b1001 ,
1/
11
b1001 5
b1001 6
18
b1001 <
b1001 =
b0011 >
b0110 ?
1@
1F
0G
1H
1I
1J
1K
1R
1[
1d
1i
#325000000
0!
0&
01
08
0@
0I
0R
0[
0d
#330000000
1!
b10000 %
1&
b10000 *
b0000 ,
1-
0/
11
b0000 5
b0000 6
17
18
19
b0000 <
b0000 =
b0001 >
b1111 ?
1@
1D
0F
1G
0H
1I
0J
0K
1M
0O
1P
0Q
1R
1V
1[
1_
0a
1b
0c
1d
0i
1j
0k
1l
#335000000
0!
0&
01
08
0@
0I
0R
0[
0d
#340000000
1!
b10001 %
1&
b10001 *
b0001 ,
11
b0001 5
b0001 6
18
b0001 <
b0001 =
b0011 >
b1110 ?
1@
1F
0G
1H
1I
1J
1K
1R
1[
1d
#345000000
0!
0&
01
08
0@
0I
0R
0[
0d
#350000000
1!
b10010 %
1&
b10010 *
b0010 ,
11
b0010 5
b0010 6
18
b0010 <
b0010 =
b0001 >
b1101 ?
1@
0F
1G
0H
1I
0J
0K
1O
0P
1Q
1R
1[
1d
#355000000
0!
0&
01
08
0@
0I
0R
0[
0d
#360000000
1!
b00001 %
1&
b00001 *
b0001 ,
0-
b1111 .
10
11
12
b1111 3
b0001 5
b0001 6
17
18
19
b1111 :
b0001 <
b0001 =
b0011 >
b1110 ?
1@
1C
1D
1F
0G
1H
1I
1J
1K
1M
0O
1P
0Q
1R
0S
0T
1V
1[
1_
1d
1h
0j
1k
0l
#365000000
0!
0&
01
08
0@
0I
0R
0[
0d
#370000000
1!
b00010 %
1&
b00010 *
b0010 ,
11
b0010 5
b0010 6
18
b0010 <
b0010 =
b0001 >
b1101 ?
1@
0F
1G
0H
1I
0J
0K
1O
0P
1Q
1R
1[
1d
#375000000
0!
0&
01
08
0@
0I
0R
0[
0d
#380000000
1!
b00011 %
1&
b00011 *
b0011 ,
11
b0011 5
b0011 6
18
b0011 <
b0011 =
b0111 >
b1100 ?
1@
1F
0G
1H
1I
1J
1K
1R
1S
1T
1[
1d
#385000000
0!
0&
01
08
0@
0I
0R
0[
0d
#390000000
1!
b00100 %
1&
b00100 *
b0100 ,
11
b0100 5
b0100 6
18
b0100 <
b0100 =
b0001 >
b1011 ?
1@
0F
1G
0H
1I
0J
0K
0O
1P
0Q
1R
0S
0T
1X
0Y
1Z
1[
0\
0]
1d
#395000000
0!
0&
01
08
0@
0I
0R
0[
0d
#400000000
1!
b00101 %
1&
b00101 *
b0101 ,
11
b0101 5
b0101 6
18
b0101 <
b0101 =
b0011 >
b1010 ?
1@
1F
0G
1H
1I
1J
1K
1R
1[
1d
#405000000
0!
0&
01
08
0@
0I
0R
0[
0d
#410000000
1!
b00110 %
1&
b00110 *
b0110 ,
11
b0110 5
b0110 6
18
b0110 <
b0110 =
b0001 >
b1001 ?
1@
0F
1G
0H
1I
0J
0K
1O
0P
1Q
1R
1[
1d
#415000000
0!
0&
01
08
0@
0I
0R
0[
0d
#420000000
1!
b00111 %
1&
b00111 *
b0111 ,
11
b0111 5
b0111 6
18
b0111 <
b0111 =
b1111 >
b1000 ?
1@
1F
0G
1H
1I
1J
1K
1R
1S
1T
1[
1\
1]
1d
