Practice5/Counter0_9_tb.vcd
$date
  Fri May  1 20:08:18 2020
$end
$version
  GHDL v0
$end
$timescale
  1 fs
$end
$scope module standard $end
$upscope $end
$scope module counter0_9_tb $end
$var reg 1 ! clk $end
$var reg 1 " clear $end
$var reg 1 # preset $end
$var reg 1 $ en $end
$var reg 4 % z[3:0] $end
$scope module fs0 $end
$var reg 1 & clk $end
$var reg 1 ' clear $end
$var reg 1 ( preset $end
$var reg 1 ) en $end
$var reg 4 * z[3:0] $end
$var reg 4 + intq4[3:0] $end
$var reg 1 , clear0_9 $end
$scope module b4 $end
$var reg 1 - clk $end
$var reg 1 . clear $end
$var reg 1 / preset $end
$var reg 1 0 en $end
$var reg 4 1 z[3:0] $end
$var reg 4 2 intq[3:0] $end
$var reg 4 3 intjk[3:0] $end
$var reg 4 4 intqn[3:0] $end
$scope module f0 $end
$var reg 1 5 clk $end
$var reg 1 6 j $end
$var reg 1 7 k $end
$var reg 1 8 preset $end
$var reg 1 9 clear $end
$var reg 1 : en $end
$var reg 1 ; q $end
$var reg 1 < qn $end
$var reg 1 = intq $end
$upscope $end
$scope module f1 $end
$var reg 1 > clk $end
$var reg 1 ? j $end
$var reg 1 @ k $end
$var reg 1 A preset $end
$var reg 1 B clear $end
$var reg 1 C en $end
$var reg 1 D q $end
$var reg 1 E qn $end
$var reg 1 F intq $end
$upscope $end
$scope module f2 $end
$var reg 1 G clk $end
$var reg 1 H j $end
$var reg 1 I k $end
$var reg 1 J preset $end
$var reg 1 K clear $end
$var reg 1 L en $end
$var reg 1 M q $end
$var reg 1 N qn $end
$var reg 1 O intq $end
$upscope $end
$scope module f3 $end
$var reg 1 P clk $end
$var reg 1 Q j $end
$var reg 1 R k $end
$var reg 1 S preset $end
$var reg 1 T clear $end
$var reg 1 U en $end
$var reg 1 V q $end
$var reg 1 W qn $end
$var reg 1 X intq $end
$upscope $end
$upscope $end
$upscope $end
$upscope $end
$enddefinitions $end
#0
0!
0"
1#
1$
b0000 %
0&
0'
1(
1)
b0000 *
b0000 +
0,
0-
0.
1/
10
b0000 1
b0000 2
b0001 3
b1111 4
05
16
17
18
09
1:
0;
1<
0=
0>
0?
0@
1A
0B
1C
0D
1E
0F
0G
0H
0I
1J
0K
1L
0M
1N
0O
0P
0Q
0R
1S
0T
1U
0V
1W
0X
#5000000
1!
1"
1&
1'
1,
1-
1.
15
19
1>
1B
1G
1K
1P
1T
#10000000
0!
0&
0-
05
0>
0G
0P
#15000000
1!
b0001 %
1&
b0001 *
b0001 +
1-
b0001 1
b0001 2
b0011 3
b1110 4
15
1;
0<
1=
1>
1?
1@
1G
1P
#20000000
0!
0&
0-
05
0>
0G
0P
#25000000
1!
b0010 %
1&
b0010 *
b0010 +
1-
b0010 1
b0010 2
b0001 3
b1101 4
15
0;
1<
0=
1>
0?
0@
1D
0E
1F
1G
1P
#30000000
0!
0&
0-
05
0>
0G
0P
#35000000
1!
b0011 %
1&
b0011 *
b0011 +
1-
b0011 1
b0011 2
b0111 3
b1100 4
15
1;
0<
1=
1>
1?
1@
1G
1H
1I
1P
#40000000
0!
0&
0-
05
0>
0G
0P
#45000000
1!
b0100 %
1&
b0100 *
b0100 +
1-
b0100 1
b0100 2
b0001 3
b1011 4
15
0;
1<
0=
1>
0?
0@
0D
1E
0F
1G
0H
0I
1M
0N
1O
1P
0Q
0R
#50000000
0!
0&
0-
05
0>
0G
0P
#55000000
1!
b0101 %
1&
b0101 *
b0101 +
1-
b0101 1
b0101 2
b0011 3
b1010 4
15
1;
0<
1=
1>
1?
1@
1G
1P
#60000000
0!
0&
0-
05
0>
0G
0P
#65000000
1!
b0110 %
1&
b0110 *
b0110 +
1-
b0110 1
b0110 2
b0001 3
b1001 4
15
0;
1<
0=
1>
0?
0@
1D
0E
1F
1G
1P
#70000000
0!
0&
0-
05
0>
0G
0P
#75000000
1!
b0111 %
1&
b0111 *
b0111 +
1-
b0111 1
b0111 2
b1111 3
b1000 4
15
1;
0<
1=
1>
1?
1@
1G
1H
1I
1P
1Q
1R
#80000000
0!
0&
0-
05
0>
0G
0P
#85000000
1!
b1000 %
1&
b1000 *
b1000 +
1-
b1000 1
b1000 2
b0001 3
b0111 4
15
0;
1<
0=
1>
0?
0@
0D
1E
0F
1G
0H
0I
0M
1N
0O
1P
0Q
0R
1V
0W
1X
#90000000
0!
0&
0-
05
0>
0G
0P
#95000000
1!
b1001 %
1&
b1001 *
b1001 +
1-
b1001 1
b1001 2
b0011 3
b0110 4
15
1;
0<
1=
1>
1?
1@
1G
1P
#100000000
0!
0&
0-
05
0>
0G
0P
#105000000
1!
b0000 %
1&
b0000 *
b0000 +
1,
1-
1.
b0000 1
b0000 2
b0001 3
b1111 4
15
19
0;
1<
0=
1>
0?
0@
1B
0D
1E
0F
1G
1K
1P
1T
0V
1W
0X
#110000000
0!
0&
0-
05
0>
0G
0P
#115000000
1!
b0001 %
1&
b0001 *
b0001 +
1-
b0001 1
b0001 2
b0011 3
b1110 4
15
1;
0<
1=
1>
1?
1@
1G
1P
#120000000
0!
0&
0-
05
0>
0G
0P
#125000000
1!
b0010 %
1&
b0010 *
b0010 +
1-
b0010 1
b0010 2
b0001 3
b1101 4
15
0;
1<
0=
1>
0?
0@
1D
0E
1F
1G
1P
#130000000
0!
0&
0-
05
0>
0G
0P
#135000000
1!
b0011 %
1&
b0011 *
b0011 +
1-
b0011 1
b0011 2
b0111 3
b1100 4
15
1;
0<
1=
1>
1?
1@
1G
1H
1I
1P
#140000000
0!
0&
0-
05
0>
0G
0P
#145000000
1!
b0100 %
1&
b0100 *
b0100 +
1-
b0100 1
b0100 2
b0001 3
b1011 4
15
0;
1<
0=
1>
0?
0@
0D
1E
0F
1G
0H
0I
1M
0N
1O
1P
0Q
0R
#150000000
0!
0&
0-
05
0>
0G
0P
#155000000
1!
b0101 %
1&
b0101 *
b0101 +
1-
b0101 1
b0101 2
b0011 3
b1010 4
15
1;
0<
1=
1>
1?
1@
1G
1P
#160000000
0!
0&
0-
05
0>
0G
0P
#165000000
1!
b0110 %
1&
b0110 *
b0110 +
1-
b0110 1
b0110 2
b0001 3
b1001 4
15
0;
1<
0=
1>
0?
0@
1D
0E
1F
1G
1P
#170000000
0!
0&
0-
05
0>
0G
0P
#175000000
1!
b0111 %
1&
b0111 *
b0111 +
1-
b0111 1
b0111 2
b1111 3
b1000 4
15
1;
0<
1=
1>
1?
1@
1G
1H
1I
1P
1Q
1R
#180000000
0!
0&
0-
05
0>
0G
0P
#185000000
1!
b1000 %
1&
b1000 *
b1000 +
1-
b1000 1
b1000 2
b0001 3
b0111 4
15
0;
1<
0=
1>
0?
0@
0D
1E
0F
1G
0H
0I
0M
1N
0O
1P
0Q
0R
1V
0W
1X
#190000000
0!
0&
0-
05
0>
0G
0P
#195000000
1!
b1001 %
1&
b1001 *
b1001 +
1-
b1001 1
b1001 2
b0011 3
b0110 4
15
1;
0<
1=
1>
1?
1@
1G
1P
#200000000
0!
0&
0-
05
0>
0G
0P
#205000000
1!
b0000 %
1&
b0000 *
b0000 +
1,
1-
1.
b0000 1
b0000 2
b0001 3
b1111 4
15
19
0;
1<
0=
1>
0?
0@
1B
0D
1E
0F
1G
1K
1P
1T
0V
1W
0X
#210000000
0!
0&
0-
05
0>
0G
0P
#215000000
1!
b0001 %
1&
b0001 *
b0001 +
1-
b0001 1
b0001 2
b0011 3
b1110 4
15
1;
0<
1=
1>
1?
1@
1G
1P
#220000000
0!
0&
0-
05
0>
0G
0P
#225000000
1!
b0010 %
1&
b0010 *
b0010 +
1-
b0010 1
b0010 2
b0001 3
b1101 4
15
0;
1<
0=
1>
0?
0@
1D
0E
1F
1G
1P
#230000000
0!
0&
0-
05
0>
0G
0P
#235000000
1!
b0011 %
1&
b0011 *
b0011 +
1-
b0011 1
b0011 2
b0111 3
b1100 4
15
1;
0<
1=
1>
1?
1@
1G
1H
1I
1P
#240000000
0!
0&
0-
05
0>
0G
0P
#245000000
1!
b0100 %
1&
b0100 *
b0100 +
1-
b0100 1
b0100 2
b0001 3
b1011 4
15
0;
1<
0=
1>
0?
0@
0D
1E
0F
1G
0H
0I
1M
0N
1O
1P
0Q
0R
#250000000
0!
0&
0-
05
0>
0G
0P
#255000000
1!
b0101 %
1&
b0101 *
b0101 +
1-
b0101 1
b0101 2
b0011 3
b1010 4
15
1;
0<
1=
1>
1?
1@
1G
1P
#260000000
0!
0&
0-
05
0>
0G
0P
#265000000
1!
b0110 %
1&
b0110 *
b0110 +
1-
b0110 1
b0110 2
b0001 3
b1001 4
15
0;
1<
0=
1>
0?
0@
1D
0E
1F
1G
1P
#270000000
0!
0&
0-
05
0>
0G
0P
#275000000
1!
b0111 %
1&
b0111 *
b0111 +
1-
b0111 1
b0111 2
b1111 3
b1000 4
15
1;
0<
1=
1>
1?
1@
1G
1H
1I
1P
1Q
1R
#280000000
0!
0&
0-
05
0>
0G
0P
#285000000
1!
b1000 %
1&
b1000 *
b1000 +
1-
b1000 1
b1000 2
b0001 3
b0111 4
15
0;
1<
0=
1>
0?
0@
0D
1E
0F
1G
0H
0I
0M
1N
0O
1P
0Q
0R
1V
0W
1X
#290000000
0!
0&
0-
05
0>
0G
0P
#295000000
1!
b1001 %
1&
b1001 *
b1001 +
1-
b1001 1
b1001 2
b0011 3
b0110 4
15
1;
0<
1=
1>
1?
1@
1G
1P
#300000000
0!
0&
0-
05
0>
0G
0P
#305000000
1!
b0000 %
1&
b0000 *
b0000 +
1,
1-
1.
b0000 1
b0000 2
b0001 3
b1111 4
15
19
0;
1<
0=
1>
0?
0@
1B
0D
1E
0F
1G
1K
1P
1T
0V
1W
0X
#310000000
0!
0&
0-
05
0>
0G
0P
#315000000
1!
b0001 %
1&
b0001 *
b0001 +
1-
b0001 1
b0001 2
b0011 3
b1110 4
15
1;
0<
1=
1>
1?
1@
1G
1P
#320000000
0!
0&
0-
05
0>
0G
0P
#325000000
1!
b0010 %
1&
b0010 *
b0010 +
1-
b0010 1
b0010 2
b0001 3
b1101 4
15
0;
1<
0=
1>
0?
0@
1D
0E
1F
1G
1P
#330000000
0!
0&
0-
05
0>
0G
0P
#335000000
1!
b0011 %
1&
b0011 *
b0011 +
1-
b0011 1
b0011 2
b0111 3
b1100 4
15
1;
0<
1=
1>
1?
1@
1G
1H
1I
1P
#340000000
0!
0&
0-
05
0>
0G
0P
#345000000
1!
b0100 %
1&
b0100 *
b0100 +
1-
b0100 1
b0100 2
b0001 3
b1011 4
15
0;
1<
0=
1>
0?
0@
0D
1E
0F
1G
0H
0I
1M
0N
1O
1P
0Q
0R
#350000000
0!
0&
0-
05
0>
0G
0P
#355000000
1!
b0101 %
1&
b0101 *
b0101 +
1-
b0101 1
b0101 2
b0011 3
b1010 4
15
1;
0<
1=
1>
1?
1@
1G
1P
#360000000
0!
0&
0-
05
0>
0G
0P
#365000000
1!
b0110 %
1&
b0110 *
b0110 +
1-
b0110 1
b0110 2
b0001 3
b1001 4
15
0;
1<
0=
1>
0?
0@
1D
0E
1F
1G
1P
#370000000
0!
0&
0-
05
0>
0G
0P
#375000000
1!
b0111 %
1&
b0111 *
b0111 +
1-
b0111 1
b0111 2
b1111 3
b1000 4
15
1;
0<
1=
1>
1?
1@
1G
1H
1I
1P
1Q
1R
#380000000
0!
0&
0-
05
0>
0G
0P
#385000000
1!
b1000 %
1&
b1000 *
b1000 +
1-
b1000 1
b1000 2
b0001 3
b0111 4
15
0;
1<
0=
1>
0?
0@
0D
1E
0F
1G
0H
0I
0M
1N
0O
1P
0Q
0R
1V
0W
1X
#390000000
0!
0&
0-
05
0>
0G
0P
#395000000
1!
b1001 %
1&
b1001 *
b1001 +
1-
b1001 1
b1001 2
b0011 3
b0110 4
15
1;
0<
1=
1>
1?
1@
1G
1P
#400000000
0!
0&
0-
05
0>
0G
0P
#405000000
1!
b0000 %
1&
b0000 *
b0000 +
1,
1-
1.
b0000 1
b0000 2
b0001 3
b1111 4
15
19
0;
1<
0=
1>
0?
0@
1B
0D
1E
0F
1G
1K
1P
1T
0V
1W
0X
#410000000
0!
0&
0-
05
0>
0G
0P
#415000000
1!
b0001 %
1&
b0001 *
b0001 +
1-
b0001 1
b0001 2
b0011 3
b1110 4
15
1;
0<
1=
1>
1?
1@
1G
1P
