Practice5/Counter0_59_tb.vcd
$date
  Fri May  8 22:26:32 2020
$end
$version
  GHDL v0
$end
$timescale
  1 fs
$end
$scope module standard $end
$upscope $end
$scope module counter0_59_tb $end
$var reg 1 ! clk $end
$var reg 1 " clear $end
$var reg 1 # preset $end
$var reg 1 $ en $end
$var reg 8 % z[7:0] $end
$scope module fs0 $end
$var reg 1 & clk $end
$var reg 1 ' clear $end
$var reg 1 ( preset $end
$var reg 1 ) en $end
$var reg 8 * z[7:0] $end
$var reg 8 + intq[7:0] $end
$var reg 4 , set[3:0] $end
$var reg 1 - enc5 $end
$var reg 1 . clear0_5 $end
$var reg 1 / clear0_9 $end
$scope module c1 $end
$var reg 1 0 clk $end
$var reg 1 1 clear $end
$var reg 4 2 preset[3:0] $end
$var reg 1 3 en $end
$var reg 4 4 z[3:0] $end
$var reg 4 5 intq4[3:0] $end
$var reg 1 6 clear0_9 $end
$scope module b4 $end
$var reg 1 7 clk $end
$var reg 1 8 clear $end
$var reg 4 9 preset[3:0] $end
$var reg 1 : en $end
$var reg 4 ; z[3:0] $end
$var reg 4 < intq[3:0] $end
$var reg 4 = intjk[3:0] $end
$var reg 4 > intqn[3:0] $end
$scope module f0 $end
$var reg 1 ? clk $end
$var reg 1 @ j $end
$var reg 1 A k $end
$var reg 1 B preset $end
$var reg 1 C clear $end
$var reg 1 D en $end
$var reg 1 E q $end
$var reg 1 F qn $end
$var reg 1 G intq $end
$upscope $end
$scope module f1 $end
$var reg 1 H clk $end
$var reg 1 I j $end
$var reg 1 J k $end
$var reg 1 K preset $end
$var reg 1 L clear $end
$var reg 1 M en $end
$var reg 1 N q $end
$var reg 1 O qn $end
$var reg 1 P intq $end
$upscope $end
$scope module f2 $end
$var reg 1 Q clk $end
$var reg 1 R j $end
$var reg 1 S k $end
$var reg 1 T preset $end
$var reg 1 U clear $end
$var reg 1 V en $end
$var reg 1 W q $end
$var reg 1 X qn $end
$var reg 1 Y intq $end
$upscope $end
$scope module f3 $end
$var reg 1 Z clk $end
$var reg 1 [ j $end
$var reg 1 \ k $end
$var reg 1 ] preset $end
$var reg 1 ^ clear $end
$var reg 1 _ en $end
$var reg 1 ` q $end
$var reg 1 a qn $end
$var reg 1 b intq $end
$upscope $end
$upscope $end
$upscope $end
$scope module c0 $end
$var reg 1 c clk $end
$var reg 1 d clear $end
$var reg 4 e preset[3:0] $end
$var reg 1 f en $end
$var reg 4 g z[3:0] $end
$var reg 4 h intq4[3:0] $end
$var reg 1 i clear0_5 $end
$scope module b4 $end
$var reg 1 j clk $end
$var reg 1 k clear $end
$var reg 4 l preset[3:0] $end
$var reg 1 m en $end
$var reg 4 n z[3:0] $end
$var reg 4 o intq[3:0] $end
$var reg 4 p intjk[3:0] $end
$var reg 4 q intqn[3:0] $end
$scope module f0 $end
$var reg 1 r clk $end
$var reg 1 s j $end
$var reg 1 t k $end
$var reg 1 u preset $end
$var reg 1 v clear $end
$var reg 1 w en $end
$var reg 1 x q $end
$var reg 1 y qn $end
$var reg 1 z intq $end
$upscope $end
$scope module f1 $end
$var reg 1 { clk $end
$var reg 1 | j $end
$var reg 1 } k $end
$var reg 1 !" preset $end
$var reg 1 "" clear $end
$var reg 1 #" en $end
$var reg 1 $" q $end
$var reg 1 %" qn $end
$var reg 1 &" intq $end
$upscope $end
$scope module f2 $end
$var reg 1 '" clk $end
$var reg 1 (" j $end
$var reg 1 )" k $end
$var reg 1 *" preset $end
$var reg 1 +" clear $end
$var reg 1 ," en $end
$var reg 1 -" q $end
$var reg 1 ." qn $end
$var reg 1 /" intq $end
$upscope $end
$scope module f3 $end
$var reg 1 0" clk $end
$var reg 1 1" j $end
$var reg 1 2" k $end
$var reg 1 3" preset $end
$var reg 1 4" clear $end
$var reg 1 5" en $end
$var reg 1 6" q $end
$var reg 1 7" qn $end
$var reg 1 8" intq $end
$upscope $end
$upscope $end
$upscope $end
$upscope $end
$upscope $end
$enddefinitions $end
#0
0!
1"
1#
1$
b00000000 %
0&
1'
1(
1)
b00000000 *
b00000000 +
b1111 ,
0-
1.
1/
00
11
b1111 2
13
b0000 4
b0000 5
16
07
18
b1111 9
1:
b0000 ;
b0000 <
b0001 =
b1111 >
0?
1@
1A
1B
1C
1D
0E
1F
0G
0H
0I
0J
1K
1L
1M
0N
1O
0P
0Q
0R
0S
1T
1U
1V
0W
1X
0Y
0Z
0[
0\
1]
1^
1_
0`
1a
0b
0c
1d
b1111 e
0f
b0000 g
b0000 h
1i
0j
1k
b1111 l
0m
b0000 n
b0000 o
b0001 p
b1111 q
0r
1s
1t
1u
1v
0w
0x
1y
0z
0{
0|
0}
1!"
1""
0#"
0$"
1%"
0&"
0'"
0("
0)"
1*"
1+"
0,"
0-"
1."
0/"
00"
01"
02"
13"
14"
05"
06"
17"
08"
#5000000
#10000000
1!
b00000001 %
1&
b00000001 *
b00000001 +
10
b0001 4
b0001 5
17
b0001 ;
b0001 <
b0011 =
b1110 >
1?
1E
0F
1G
1H
1I
1J
1Q
1Z
1c
1j
1r
1{
1'"
10"
#15000000
0!
0&
00
07
0?
0H
0Q
0Z
0c
0j
0r
0{
0'"
00"
#20000000
1!
b00000010 %
1&
b00000010 *
b00000010 +
10
b0010 4
b0010 5
17
b0010 ;
b0010 <
b0001 =
b1101 >
1?
0E
1F
0G
1H
0I
0J
1N
0O
1P
1Q
1Z
1c
1j
1r
1{
1'"
10"
#25000000
0!
0&
00
07
0?
0H
0Q
0Z
0c
0j
0r
0{
0'"
00"
#30000000
1!
b00000011 %
1&
b00000011 *
b00000011 +
10
b0011 4
b0011 5
17
b0011 ;
b0011 <
b0111 =
b1100 >
1?
1E
0F
1G
1H
1I
1J
1Q
1R
1S
1Z
1c
1j
1r
1{
1'"
10"
#35000000
0!
0&
00
07
0?
0H
0Q
0Z
0c
0j
0r
0{
0'"
00"
#40000000
1!
b00000100 %
1&
b00000100 *
b00000100 +
10
b0100 4
b0100 5
17
b0100 ;
b0100 <
b0001 =
b1011 >
1?
0E
1F
0G
1H
0I
0J
0N
1O
0P
1Q
0R
0S
1W
0X
1Y
1Z
0[
0\
1c
1j
1r
1{
1'"
10"
#45000000
0!
0&
00
07
0?
0H
0Q
0Z
0c
0j
0r
0{
0'"
00"
#50000000
1!
b00000101 %
1&
b00000101 *
b00000101 +
10
b0101 4
b0101 5
17
b0101 ;
b0101 <
b0011 =
b1010 >
1?
1E
0F
1G
1H
1I
1J
1Q
1Z
1c
1j
1r
1{
1'"
10"
#55000000
0!
0&
00
07
0?
0H
0Q
0Z
0c
0j
0r
0{
0'"
00"
#60000000
1!
b00000110 %
1&
b00000110 *
b00000110 +
10
b0110 4
b0110 5
17
b0110 ;
b0110 <
b0001 =
b1001 >
1?
0E
1F
0G
1H
0I
0J
1N
0O
1P
1Q
1Z
1c
1j
1r
1{
1'"
10"
#65000000
0!
0&
00
07
0?
0H
0Q
0Z
0c
0j
0r
0{
0'"
00"
#70000000
1!
b00000111 %
1&
b00000111 *
b00000111 +
10
b0111 4
b0111 5
17
b0111 ;
b0111 <
b1111 =
b1000 >
1?
1E
0F
1G
1H
1I
1J
1Q
1R
1S
1Z
1[
1\
1c
1j
1r
1{
1'"
10"
#75000000
0!
0&
00
07
0?
0H
0Q
0Z
0c
0j
0r
0{
0'"
00"
#80000000
1!
b00001000 %
1&
b00001000 *
b00001000 +
10
b1000 4
b1000 5
17
b1000 ;
b1000 <
b0001 =
b0111 >
1?
0E
1F
0G
1H
0I
0J
0N
1O
0P
1Q
0R
0S
0W
1X
0Y
1Z
0[
0\
1`
0a
1b
1c
1j
1r
1{
1'"
10"
#85000000
0!
0&
00
07
0?
0H
0Q
0Z
0c
0j
0r
0{
0'"
00"
#90000000
1!
b00001001 %
1&
b00001001 *
b00001001 +
1-
10
b1001 4
b1001 5
17
b1001 ;
b1001 <
b0011 =
b0110 >
1?
1E
0F
1G
1H
1I
1J
1Q
1Z
1c
1f
1j
1m
1r
1w
1{
1#"
1'"
1,"
10"
15"
#95000000
0!
0&
00
07
0?
0H
0Q
0Z
0c
0j
0r
0{
0'"
00"
#100000000
1!
b00010000 %
1&
b00010000 *
b00010000 +
0-
1/
10
11
b0000 4
b0000 5
16
17
18
b0000 ;
b0000 <
b0001 =
b1111 >
1?
1C
0E
1F
0G
1H
0I
0J
1L
0N
1O
0P
1Q
1U
1Z
1^
0`
1a
0b
1c
0f
b0001 g
b0001 h
1j
0m
b0001 n
b0001 o
b0011 p
b1110 q
1r
0w
1x
0y
1z
1{
1|
1}
0#"
1'"
0,"
10"
05"
#105000000
0!
0&
00
07
0?
0H
0Q
0Z
0c
0j
0r
0{
0'"
00"
#110000000
1!
b00010001 %
1&
b00010001 *
b00010001 +
10
b0001 4
b0001 5
17
b0001 ;
b0001 <
b0011 =
b1110 >
1?
1E
0F
1G
1H
1I
1J
1Q
1Z
1c
1j
1r
1{
1'"
10"
#115000000
0!
0&
00
07
0?
0H
0Q
0Z
0c
0j
0r
0{
0'"
00"
#120000000
1!
b00010010 %
1&
b00010010 *
b00010010 +
10
b0010 4
b0010 5
17
b0010 ;
b0010 <
b0001 =
b1101 >
1?
0E
1F
0G
1H
0I
0J
1N
0O
1P
1Q
1Z
1c
1j
1r
1{
1'"
10"
#125000000
0!
0&
00
07
0?
0H
0Q
0Z
0c
0j
0r
0{
0'"
00"
#130000000
1!
b00010011 %
1&
b00010011 *
b00010011 +
10
b0011 4
b0011 5
17
b0011 ;
b0011 <
b0111 =
b1100 >
1?
1E
0F
1G
1H
1I
1J
1Q
1R
1S
1Z
1c
1j
1r
1{
1'"
10"
#135000000
0!
0&
00
07
0?
0H
0Q
0Z
0c
0j
0r
0{
0'"
00"
#140000000
1!
b00010100 %
1&
b00010100 *
b00010100 +
10
b0100 4
b0100 5
17
b0100 ;
b0100 <
b0001 =
b1011 >
1?
0E
1F
0G
1H
0I
0J
0N
1O
0P
1Q
0R
0S
1W
0X
1Y
1Z
0[
0\
1c
1j
1r
1{
1'"
10"
#145000000
0!
0&
00
07
0?
0H
0Q
0Z
0c
0j
0r
0{
0'"
00"
#150000000
1!
b00010101 %
1&
b00010101 *
b00010101 +
10
b0101 4
b0101 5
17
b0101 ;
b0101 <
b0011 =
b1010 >
1?
1E
0F
1G
1H
1I
1J
1Q
1Z
1c
1j
1r
1{
1'"
10"
#155000000
0!
0&
00
07
0?
0H
0Q
0Z
0c
0j
0r
0{
0'"
00"
#160000000
1!
b00010110 %
1&
b00010110 *
b00010110 +
10
b0110 4
b0110 5
17
b0110 ;
b0110 <
b0001 =
b1001 >
1?
0E
1F
0G
1H
0I
0J
1N
0O
1P
1Q
1Z
1c
1j
1r
1{
1'"
10"
#165000000
0!
0&
00
07
0?
0H
0Q
0Z
0c
0j
0r
0{
0'"
00"
#170000000
1!
b00010111 %
1&
b00010111 *
b00010111 +
10
b0111 4
b0111 5
17
b0111 ;
b0111 <
b1111 =
b1000 >
1?
1E
0F
1G
1H
1I
1J
1Q
1R
1S
1Z
1[
1\
1c
1j
1r
1{
1'"
10"
#175000000
0!
0&
00
07
0?
0H
0Q
0Z
0c
0j
0r
0{
0'"
00"
#180000000
1!
b00011000 %
1&
b00011000 *
b00011000 +
10
b1000 4
b1000 5
17
b1000 ;
b1000 <
b0001 =
b0111 >
1?
0E
1F
0G
1H
0I
0J
0N
1O
0P
1Q
0R
0S
0W
1X
0Y
1Z
0[
0\
1`
0a
1b
1c
1j
1r
1{
1'"
10"
#185000000
0!
0&
00
07
0?
0H
0Q
0Z
0c
0j
0r
0{
0'"
00"
#190000000
1!
b00011001 %
1&
b00011001 *
b00011001 +
1-
10
b1001 4
b1001 5
17
b1001 ;
b1001 <
b0011 =
b0110 >
1?
1E
0F
1G
1H
1I
1J
1Q
1Z
1c
1f
1j
1m
1r
1w
1{
1#"
1'"
1,"
10"
15"
#195000000
0!
0&
00
07
0?
0H
0Q
0Z
0c
0j
0r
0{
0'"
00"
#200000000
1!
b00100000 %
1&
b00100000 *
b00100000 +
0-
1/
10
11
b0000 4
b0000 5
16
17
18
b0000 ;
b0000 <
b0001 =
b1111 >
1?
1C
0E
1F
0G
1H
0I
0J
1L
0N
1O
0P
1Q
1U
1Z
1^
0`
1a
0b
1c
0f
b0010 g
b0010 h
1j
0m
b0010 n
b0010 o
b0001 p
b1101 q
1r
0w
0x
1y
0z
1{
0|
0}
0#"
1$"
0%"
1&"
1'"
0,"
10"
05"
#205000000
0!
0&
00
07
0?
0H
0Q
0Z
0c
0j
0r
0{
0'"
00"
#210000000
1!
b00100001 %
1&
b00100001 *
b00100001 +
10
b0001 4
b0001 5
17
b0001 ;
b0001 <
b0011 =
b1110 >
1?
1E
0F
1G
1H
1I
1J
1Q
1Z
1c
1j
1r
1{
1'"
10"
#215000000
0!
0&
00
07
0?
0H
0Q
0Z
0c
0j
0r
0{
0'"
00"
#220000000
1!
b00100010 %
1&
b00100010 *
b00100010 +
10
b0010 4
b0010 5
17
b0010 ;
b0010 <
b0001 =
b1101 >
1?
0E
1F
0G
1H
0I
0J
1N
0O
1P
1Q
1Z
1c
1j
1r
1{
1'"
10"
#225000000
0!
0&
00
07
0?
0H
0Q
0Z
0c
0j
0r
0{
0'"
00"
#230000000
1!
b00100011 %
1&
b00100011 *
b00100011 +
10
b0011 4
b0011 5
17
b0011 ;
b0011 <
b0111 =
b1100 >
1?
1E
0F
1G
1H
1I
1J
1Q
1R
1S
1Z
1c
1j
1r
1{
1'"
10"
#235000000
0!
0&
00
07
0?
0H
0Q
0Z
0c
0j
0r
0{
0'"
00"
#240000000
1!
b00100100 %
1&
b00100100 *
b00100100 +
10
b0100 4
b0100 5
17
b0100 ;
b0100 <
b0001 =
b1011 >
1?
0E
1F
0G
1H
0I
0J
0N
1O
0P
1Q
0R
0S
1W
0X
1Y
1Z
0[
0\
1c
1j
1r
1{
1'"
10"
#245000000
0!
0&
00
07
0?
0H
0Q
0Z
0c
0j
0r
0{
0'"
00"
#250000000
1!
b00100101 %
1&
b00100101 *
b00100101 +
10
b0101 4
b0101 5
17
b0101 ;
b0101 <
b0011 =
b1010 >
1?
1E
0F
1G
1H
1I
1J
1Q
1Z
1c
1j
1r
1{
1'"
10"
#255000000
0!
0&
00
07
0?
0H
0Q
0Z
0c
0j
0r
0{
0'"
00"
#260000000
1!
b00100110 %
1&
b00100110 *
b00100110 +
10
b0110 4
b0110 5
17
b0110 ;
b0110 <
b0001 =
b1001 >
1?
0E
1F
0G
1H
0I
0J
1N
0O
1P
1Q
1Z
1c
1j
1r
1{
1'"
10"
#265000000
0!
0&
00
07
0?
0H
0Q
0Z
0c
0j
0r
0{
0'"
00"
#270000000
1!
b00100111 %
1&
b00100111 *
b00100111 +
10
b0111 4
b0111 5
17
b0111 ;
b0111 <
b1111 =
b1000 >
1?
1E
0F
1G
1H
1I
1J
1Q
1R
1S
1Z
1[
1\
1c
1j
1r
1{
1'"
10"
#275000000
0!
0&
00
07
0?
0H
0Q
0Z
0c
0j
0r
0{
0'"
00"
#280000000
1!
b00101000 %
1&
b00101000 *
b00101000 +
10
b1000 4
b1000 5
17
b1000 ;
b1000 <
b0001 =
b0111 >
1?
0E
1F
0G
1H
0I
0J
0N
1O
0P
1Q
0R
0S
0W
1X
0Y
1Z
0[
0\
1`
0a
1b
1c
1j
1r
1{
1'"
10"
#285000000
0!
0&
00
07
0?
0H
0Q
0Z
0c
0j
0r
0{
0'"
00"
#290000000
1!
b00101001 %
1&
b00101001 *
b00101001 +
1-
10
b1001 4
b1001 5
17
b1001 ;
b1001 <
b0011 =
b0110 >
1?
1E
0F
1G
1H
1I
1J
1Q
1Z
1c
1f
1j
1m
1r
1w
1{
1#"
1'"
1,"
10"
15"
#295000000
0!
0&
00
07
0?
0H
0Q
0Z
0c
0j
0r
0{
0'"
00"
#300000000
1!
b00110000 %
1&
b00110000 *
b00110000 +
0-
1/
10
11
b0000 4
b0000 5
16
17
18
b0000 ;
b0000 <
b0001 =
b1111 >
1?
1C
0E
1F
0G
1H
0I
0J
1L
0N
1O
0P
1Q
1U
1Z
1^
0`
1a
0b
1c
0f
b0011 g
b0011 h
1j
0m
b0011 n
b0011 o
b0111 p
b1100 q
1r
0w
1x
0y
1z
1{
1|
1}
0#"
1'"
1("
1)"
0,"
10"
05"
#305000000
0!
0&
00
07
0?
0H
0Q
0Z
0c
0j
0r
0{
0'"
00"
#310000000
1!
b00110001 %
1&
b00110001 *
b00110001 +
10
b0001 4
b0001 5
17
b0001 ;
b0001 <
b0011 =
b1110 >
1?
1E
0F
1G
1H
1I
1J
1Q
1Z
1c
1j
1r
1{
1'"
10"
#315000000
0!
0&
00
07
0?
0H
0Q
0Z
0c
0j
0r
0{
0'"
00"
#320000000
1!
b00110010 %
1&
b00110010 *
b00110010 +
10
b0010 4
b0010 5
17
b0010 ;
b0010 <
b0001 =
b1101 >
1?
0E
1F
0G
1H
0I
0J
1N
0O
1P
1Q
1Z
1c
1j
1r
1{
1'"
10"
#325000000
0!
0&
00
07
0?
0H
0Q
0Z
0c
0j
0r
0{
0'"
00"
#330000000
1!
b00110011 %
1&
b00110011 *
b00110011 +
10
b0011 4
b0011 5
17
b0011 ;
b0011 <
b0111 =
b1100 >
1?
1E
0F
1G
1H
1I
1J
1Q
1R
1S
1Z
1c
1j
1r
1{
1'"
10"
#335000000
0!
0&
00
07
0?
0H
0Q
0Z
0c
0j
0r
0{
0'"
00"
#340000000
1!
b00110100 %
1&
b00110100 *
b00110100 +
10
b0100 4
b0100 5
17
b0100 ;
b0100 <
b0001 =
b1011 >
1?
0E
1F
0G
1H
0I
0J
0N
1O
0P
1Q
0R
0S
1W
0X
1Y
1Z
0[
0\
1c
1j
1r
1{
1'"
10"
#345000000
0!
0&
00
07
0?
0H
0Q
0Z
0c
0j
0r
0{
0'"
00"
#350000000
1!
b00110101 %
1&
b00110101 *
b00110101 +
10
b0101 4
b0101 5
17
b0101 ;
b0101 <
b0011 =
b1010 >
1?
1E
0F
1G
1H
1I
1J
1Q
1Z
1c
1j
1r
1{
1'"
10"
#355000000
0!
0&
00
07
0?
0H
0Q
0Z
0c
0j
0r
0{
0'"
00"
#360000000
1!
b00110110 %
1&
b00110110 *
b00110110 +
10
b0110 4
b0110 5
17
b0110 ;
b0110 <
b0001 =
b1001 >
1?
0E
1F
0G
1H
0I
0J
1N
0O
1P
1Q
1Z
1c
1j
1r
1{
1'"
10"
#365000000
0!
0&
00
07
0?
0H
0Q
0Z
0c
0j
0r
0{
0'"
00"
#370000000
1!
b00110111 %
1&
b00110111 *
b00110111 +
10
b0111 4
b0111 5
17
b0111 ;
b0111 <
b1111 =
b1000 >
1?
1E
0F
1G
1H
1I
1J
1Q
1R
1S
1Z
1[
1\
1c
1j
1r
1{
1'"
10"
#375000000
0!
0&
00
07
0?
0H
0Q
0Z
0c
0j
0r
0{
0'"
00"
#380000000
1!
b00111000 %
1&
b00111000 *
b00111000 +
10
b1000 4
b1000 5
17
b1000 ;
b1000 <
b0001 =
b0111 >
1?
0E
1F
0G
1H
0I
0J
0N
1O
0P
1Q
0R
0S
0W
1X
0Y
1Z
0[
0\
1`
0a
1b
1c
1j
1r
1{
1'"
10"
#385000000
0!
0&
00
07
0?
0H
0Q
0Z
0c
0j
0r
0{
0'"
00"
#390000000
1!
b00111001 %
1&
b00111001 *
b00111001 +
1-
10
b1001 4
b1001 5
17
b1001 ;
b1001 <
b0011 =
b0110 >
1?
1E
0F
1G
1H
1I
1J
1Q
1Z
1c
1f
1j
1m
1r
1w
1{
1#"
1'"
1,"
10"
15"
#395000000
0!
0&
00
07
0?
0H
0Q
0Z
0c
0j
0r
0{
0'"
00"
#400000000
1!
b01000000 %
1&
b01000000 *
b01000000 +
0-
1/
10
11
b0000 4
b0000 5
16
17
18
b0000 ;
b0000 <
b0001 =
b1111 >
1?
1C
0E
1F
0G
1H
0I
0J
1L
0N
1O
0P
1Q
1U
1Z
1^
0`
1a
0b
1c
0f
b0100 g
b0100 h
1j
0m
b0100 n
b0100 o
b0001 p
b1011 q
1r
0w
0x
1y
0z
1{
0|
0}
0#"
0$"
1%"
0&"
1'"
0("
0)"
0,"
1-"
0."
1/"
10"
01"
02"
05"
#405000000
0!
0&
00
07
0?
0H
0Q
0Z
0c
0j
0r
0{
0'"
00"
#410000000
1!
b01000001 %
1&
b01000001 *
b01000001 +
10
b0001 4
b0001 5
17
b0001 ;
b0001 <
b0011 =
b1110 >
1?
1E
0F
1G
1H
1I
1J
1Q
1Z
1c
1j
1r
1{
1'"
10"
#415000000
0!
0&
00
07
0?
0H
0Q
0Z
0c
0j
0r
0{
0'"
00"
#420000000
1!
b01000010 %
1&
b01000010 *
b01000010 +
10
b0010 4
b0010 5
17
b0010 ;
b0010 <
b0001 =
b1101 >
1?
0E
1F
0G
1H
0I
0J
1N
0O
1P
1Q
1Z
1c
1j
1r
1{
1'"
10"
#425000000
0!
0&
00
07
0?
0H
0Q
0Z
0c
0j
0r
0{
0'"
00"
#430000000
1!
b01000011 %
1&
b01000011 *
b01000011 +
10
b0011 4
b0011 5
17
b0011 ;
b0011 <
b0111 =
b1100 >
1?
1E
0F
1G
1H
1I
1J
1Q
1R
1S
1Z
1c
1j
1r
1{
1'"
10"
#435000000
0!
0&
00
07
0?
0H
0Q
0Z
0c
0j
0r
0{
0'"
00"
#440000000
1!
b01000100 %
1&
b01000100 *
b01000100 +
10
b0100 4
b0100 5
17
b0100 ;
b0100 <
b0001 =
b1011 >
1?
0E
1F
0G
1H
0I
0J
0N
1O
0P
1Q
0R
0S
1W
0X
1Y
1Z
0[
0\
1c
1j
1r
1{
1'"
10"
#445000000
0!
0&
00
07
0?
0H
0Q
0Z
0c
0j
0r
0{
0'"
00"
#450000000
1!
b01000101 %
1&
b01000101 *
b01000101 +
10
b0101 4
b0101 5
17
b0101 ;
b0101 <
b0011 =
b1010 >
1?
1E
0F
1G
1H
1I
1J
1Q
1Z
1c
1j
1r
1{
1'"
10"
#455000000
0!
0&
00
07
0?
0H
0Q
0Z
0c
0j
0r
0{
0'"
00"
#460000000
1!
b01000110 %
1&
b01000110 *
b01000110 +
10
b0110 4
b0110 5
17
b0110 ;
b0110 <
b0001 =
b1001 >
1?
0E
1F
0G
1H
0I
0J
1N
0O
1P
1Q
1Z
1c
1j
1r
1{
1'"
10"
#465000000
0!
0&
00
07
0?
0H
0Q
0Z
0c
0j
0r
0{
0'"
00"
#470000000
1!
b01000111 %
1&
b01000111 *
b01000111 +
10
b0111 4
b0111 5
17
b0111 ;
b0111 <
b1111 =
b1000 >
1?
1E
0F
1G
1H
1I
1J
1Q
1R
1S
1Z
1[
1\
1c
1j
1r
1{
1'"
10"
#475000000
0!
0&
00
07
0?
0H
0Q
0Z
0c
0j
0r
0{
0'"
00"
#480000000
1!
b01001000 %
1&
b01001000 *
b01001000 +
10
b1000 4
b1000 5
17
b1000 ;
b1000 <
b0001 =
b0111 >
1?
0E
1F
0G
1H
0I
0J
0N
1O
0P
1Q
0R
0S
0W
1X
0Y
1Z
0[
0\
1`
0a
1b
1c
1j
1r
1{
1'"
10"
#485000000
0!
0&
00
07
0?
0H
0Q
0Z
0c
0j
0r
0{
0'"
00"
#490000000
1!
b01001001 %
1&
b01001001 *
b01001001 +
1-
10
b1001 4
b1001 5
17
b1001 ;
b1001 <
b0011 =
b0110 >
1?
1E
0F
1G
1H
1I
1J
1Q
1Z
1c
1f
1j
1m
1r
1w
1{
1#"
1'"
1,"
10"
15"
#495000000
0!
0&
00
07
0?
0H
0Q
0Z
0c
0j
0r
0{
0'"
00"
#500000000
1!
b01010000 %
1&
b01010000 *
b01010000 +
0-
1/
10
11
b0000 4
b0000 5
16
17
18
b0000 ;
b0000 <
b0001 =
b1111 >
1?
1C
0E
1F
0G
1H
0I
0J
1L
0N
1O
0P
1Q
1U
1Z
1^
0`
1a
0b
1c
0f
b0101 g
b0101 h
1j
0m
b0101 n
b0101 o
b0011 p
b1010 q
1r
0w
1x
0y
1z
1{
1|
1}
0#"
1'"
0,"
10"
05"
#505000000
0!
0&
00
07
0?
0H
0Q
0Z
0c
0j
0r
0{
0'"
00"
#510000000
1!
b01010001 %
1&
b01010001 *
b01010001 +
10
b0001 4
b0001 5
17
b0001 ;
b0001 <
b0011 =
b1110 >
1?
1E
0F
1G
1H
1I
1J
1Q
1Z
1c
1j
1r
1{
1'"
10"
#515000000
0!
0&
00
07
0?
0H
0Q
0Z
0c
0j
0r
0{
0'"
00"
#520000000
1!
b01010010 %
1&
b01010010 *
b01010010 +
10
b0010 4
b0010 5
17
b0010 ;
b0010 <
b0001 =
b1101 >
1?
0E
1F
0G
1H
0I
0J
1N
0O
1P
1Q
1Z
1c
1j
1r
1{
1'"
10"
#525000000
0!
0&
00
07
0?
0H
0Q
0Z
0c
0j
0r
0{
0'"
00"
#530000000
1!
b01010011 %
1&
b01010011 *
b01010011 +
10
b0011 4
b0011 5
17
b0011 ;
b0011 <
b0111 =
b1100 >
1?
1E
0F
1G
1H
1I
1J
1Q
1R
1S
1Z
1c
1j
1r
1{
1'"
10"
#535000000
0!
0&
00
07
0?
0H
0Q
0Z
0c
0j
0r
0{
0'"
00"
#540000000
1!
b01010100 %
1&
b01010100 *
b01010100 +
10
b0100 4
b0100 5
17
b0100 ;
b0100 <
b0001 =
b1011 >
1?
0E
1F
0G
1H
0I
0J
0N
1O
0P
1Q
0R
0S
1W
0X
1Y
1Z
0[
0\
1c
1j
1r
1{
1'"
10"
#545000000
0!
0&
00
07
0?
0H
0Q
0Z
0c
0j
0r
0{
0'"
00"
#550000000
1!
b01010101 %
1&
b01010101 *
b01010101 +
10
b0101 4
b0101 5
17
b0101 ;
b0101 <
b0011 =
b1010 >
1?
1E
0F
1G
1H
1I
1J
1Q
1Z
1c
1j
1r
1{
1'"
10"
#555000000
0!
0&
00
07
0?
0H
0Q
0Z
0c
0j
0r
0{
0'"
00"
#560000000
1!
b01010110 %
1&
b01010110 *
b01010110 +
10
b0110 4
b0110 5
17
b0110 ;
b0110 <
b0001 =
b1001 >
1?
0E
1F
0G
1H
0I
0J
1N
0O
1P
1Q
1Z
1c
1j
1r
1{
1'"
10"
#565000000
0!
0&
00
07
0?
0H
0Q
0Z
0c
0j
0r
0{
0'"
00"
#570000000
1!
b01010111 %
1&
b01010111 *
b01010111 +
10
b0111 4
b0111 5
17
b0111 ;
b0111 <
b1111 =
b1000 >
1?
1E
0F
1G
1H
1I
1J
1Q
1R
1S
1Z
1[
1\
1c
1j
1r
1{
1'"
10"
#575000000
0!
0&
00
07
0?
0H
0Q
0Z
0c
0j
0r
0{
0'"
00"
#580000000
1!
b01011000 %
1&
b01011000 *
b01011000 +
10
b1000 4
b1000 5
17
b1000 ;
b1000 <
b0001 =
b0111 >
1?
0E
1F
0G
1H
0I
0J
0N
1O
0P
1Q
0R
0S
0W
1X
0Y
1Z
0[
0\
1`
0a
1b
1c
1j
1r
1{
1'"
10"
#585000000
0!
0&
00
07
0?
0H
0Q
0Z
0c
0j
0r
0{
0'"
00"
#590000000
1!
b01011001 %
1&
b01011001 *
b01011001 +
1-
10
b1001 4
b1001 5
17
b1001 ;
b1001 <
b0011 =
b0110 >
1?
1E
0F
1G
1H
1I
1J
1Q
1Z
1c
1f
1j
1m
1r
1w
1{
1#"
1'"
1,"
10"
15"
#595000000
0!
0&
00
07
0?
0H
0Q
0Z
0c
0j
0r
0{
0'"
00"
#600000000
1!
b00000000 %
1&
b00000000 *
b00000000 +
0-
1.
1/
10
11
b0000 4
b0000 5
16
17
18
b0000 ;
b0000 <
b0001 =
b1111 >
1?
1C
0E
1F
0G
1H
0I
0J
1L
0N
1O
0P
1Q
1U
1Z
1^
0`
1a
0b
1c
1d
0f
b0000 g
b0000 h
1i
1j
1k
0m
b0000 n
b0000 o
b0001 p
b1111 q
1r
1v
0w
0x
1y
0z
1{
0|
0}
1""
0#"
0$"
1%"
0&"
1'"
1+"
0,"
0-"
1."
0/"
10"
14"
05"
#605000000
0!
0&
00
07
0?
0H
0Q
0Z
0c
0j
0r
0{
0'"
00"
#610000000
1!
b00000001 %
1&
b00000001 *
b00000001 +
10
b0001 4
b0001 5
17
b0001 ;
b0001 <
b0011 =
b1110 >
1?
1E
0F
1G
1H
1I
1J
1Q
1Z
1c
1j
1r
1{
1'"
10"
#615000000
0!
0&
00
07
0?
0H
0Q
0Z
0c
0j
0r
0{
0'"
00"
#620000000
1!
b00000010 %
1&
b00000010 *
b00000010 +
10
b0010 4
b0010 5
17
b0010 ;
b0010 <
b0001 =
b1101 >
1?
0E
1F
0G
1H
0I
0J
1N
0O
1P
1Q
1Z
1c
1j
1r
1{
1'"
10"
