Practice5/FrequencyDivider_60_tb.vcd
$date
  Fri May  1 21:48:03 2020
$end
$version
  GHDL v0
$end
$timescale
  1 fs
$end
$scope module standard $end
$upscope $end
$scope module frequencydivider_60_tb $end
$var reg 1 ! clk $end
$var reg 1 " z $end
$scope module fs0 $end
$var reg 1 # clk $end
$var reg 1 $ z $end
$var reg 4 % intq1[3:0] $end
$var reg 4 & intq2[3:0] $end
$var reg 8 ' intq[7:0] $end
$var reg 1 ( en2 $end
$var reg 1 ) clear0_9 $end
$scope module b4_1 $end
$var reg 1 * clk $end
$var reg 1 + clear $end
$var reg 4 , preset[3:0] $end
$var reg 1 - en $end
$var reg 4 . z[3:0] $end
$var reg 4 / intq[3:0] $end
$var reg 4 0 intjk[3:0] $end
$var reg 4 1 intqn[3:0] $end
$scope module f0 $end
$var reg 1 2 clk $end
$var reg 1 3 j $end
$var reg 1 4 k $end
$var reg 1 5 preset $end
$var reg 1 6 clear $end
$var reg 1 7 en $end
$var reg 1 8 q $end
$var reg 1 9 qn $end
$var reg 1 : intq $end
$upscope $end
$scope module f1 $end
$var reg 1 ; clk $end
$var reg 1 < j $end
$var reg 1 = k $end
$var reg 1 > preset $end
$var reg 1 ? clear $end
$var reg 1 @ en $end
$var reg 1 A q $end
$var reg 1 B qn $end
$var reg 1 C intq $end
$upscope $end
$scope module f2 $end
$var reg 1 D clk $end
$var reg 1 E j $end
$var reg 1 F k $end
$var reg 1 G preset $end
$var reg 1 H clear $end
$var reg 1 I en $end
$var reg 1 J q $end
$var reg 1 K qn $end
$var reg 1 L intq $end
$upscope $end
$scope module f3 $end
$var reg 1 M clk $end
$var reg 1 N j $end
$var reg 1 O k $end
$var reg 1 P preset $end
$var reg 1 Q clear $end
$var reg 1 R en $end
$var reg 1 S q $end
$var reg 1 T qn $end
$var reg 1 U intq $end
$upscope $end
$upscope $end
$scope module b4_2 $end
$var reg 1 V clk $end
$var reg 1 W clear $end
$var reg 4 X preset[3:0] $end
$var reg 1 Y en $end
$var reg 4 Z z[3:0] $end
$var reg 4 [ intq[3:0] $end
$var reg 4 \ intjk[3:0] $end
$var reg 4 ] intqn[3:0] $end
$scope module f0 $end
$var reg 1 ^ clk $end
$var reg 1 _ j $end
$var reg 1 ` k $end
$var reg 1 a preset $end
$var reg 1 b clear $end
$var reg 1 c en $end
$var reg 1 d q $end
$var reg 1 e qn $end
$var reg 1 f intq $end
$upscope $end
$scope module f1 $end
$var reg 1 g clk $end
$var reg 1 h j $end
$var reg 1 i k $end
$var reg 1 j preset $end
$var reg 1 k clear $end
$var reg 1 l en $end
$var reg 1 m q $end
$var reg 1 n qn $end
$var reg 1 o intq $end
$upscope $end
$scope module f2 $end
$var reg 1 p clk $end
$var reg 1 q j $end
$var reg 1 r k $end
$var reg 1 s preset $end
$var reg 1 t clear $end
$var reg 1 u en $end
$var reg 1 v q $end
$var reg 1 w qn $end
$var reg 1 x intq $end
$upscope $end
$scope module f3 $end
$var reg 1 y clk $end
$var reg 1 z j $end
$var reg 1 { k $end
$var reg 1 | preset $end
$var reg 1 } clear $end
$var reg 1 !" en $end
$var reg 1 "" q $end
$var reg 1 #" qn $end
$var reg 1 $" intq $end
$upscope $end
$upscope $end
$upscope $end
$upscope $end
$enddefinitions $end
#0
0!
0"
0#
0$
b0000 %
b0000 &
b00000000 '
0(
1)
0*
1+
b1111 ,
1-
b0000 .
b0000 /
b0001 0
b1111 1
02
13
14
15
16
17
08
19
0:
0;
0<
0=
1>
1?
1@
0A
1B
0C
0D
0E
0F
1G
1H
1I
0J
1K
0L
0M
0N
0O
1P
1Q
1R
0S
1T
0U
0V
1W
b1111 X
0Y
b0000 Z
b0000 [
b0001 \
b1111 ]
0^
1_
1`
1a
1b
0c
0d
1e
0f
0g
0h
0i
1j
1k
0l
0m
1n
0o
0p
0q
0r
1s
1t
0u
0v
1w
0x
0y
0z
0{
1|
1}
0!"
0""
1#"
0$"
#1000000
#2000000
1!
1#
b0001 %
b00000001 '
1*
b0001 .
b0001 /
b0011 0
b1110 1
12
18
09
1:
1;
1<
1=
1D
1M
1V
1^
1g
1p
1y
#3000000
0!
0#
0*
02
0;
0D
0M
0V
0^
0g
0p
0y
#4000000
1!
1#
b0010 %
b00000010 '
1*
b0010 .
b0010 /
b0001 0
b1101 1
12
08
19
0:
1;
0<
0=
1A
0B
1C
1D
1M
1V
1^
1g
1p
1y
#5000000
0!
0#
0*
02
0;
0D
0M
0V
0^
0g
0p
0y
#6000000
1!
1#
b0011 %
b00000011 '
1*
b0011 .
b0011 /
b0111 0
b1100 1
12
18
09
1:
1;
1<
1=
1D
1E
1F
1M
1V
1^
1g
1p
1y
#7000000
0!
0#
0*
02
0;
0D
0M
0V
0^
0g
0p
0y
#8000000
1!
1#
b0100 %
b00000100 '
1*
b0100 .
b0100 /
b0001 0
b1011 1
12
08
19
0:
1;
0<
0=
0A
1B
0C
1D
0E
0F
1J
0K
1L
1M
0N
0O
1V
1^
1g
1p
1y
#9000000
0!
0#
0*
02
0;
0D
0M
0V
0^
0g
0p
0y
#10000000
1!
1#
b0101 %
b00000101 '
1*
b0101 .
b0101 /
b0011 0
b1010 1
12
18
09
1:
1;
1<
1=
1D
1M
1V
1^
1g
1p
1y
#11000000
0!
0#
0*
02
0;
0D
0M
0V
0^
0g
0p
0y
#12000000
1!
1#
b0110 %
b00000110 '
1*
b0110 .
b0110 /
b0001 0
b1001 1
12
08
19
0:
1;
0<
0=
1A
0B
1C
1D
1M
1V
1^
1g
1p
1y
#13000000
0!
0#
0*
02
0;
0D
0M
0V
0^
0g
0p
0y
#14000000
1!
1#
b0111 %
b00000111 '
1*
b0111 .
b0111 /
b1111 0
b1000 1
12
18
09
1:
1;
1<
1=
1D
1E
1F
1M
1N
1O
1V
1^
1g
1p
1y
#15000000
0!
0#
0*
02
0;
0D
0M
0V
0^
0g
0p
0y
#16000000
1!
1#
b1000 %
b00001000 '
1*
b1000 .
b1000 /
b0001 0
b0111 1
12
08
19
0:
1;
0<
0=
0A
1B
0C
1D
0E
0F
0J
1K
0L
1M
0N
0O
1S
0T
1U
1V
1^
1g
1p
1y
#17000000
0!
0#
0*
02
0;
0D
0M
0V
0^
0g
0p
0y
#18000000
1!
1#
b1001 %
b00001001 '
1*
b1001 .
b1001 /
b0011 0
b0110 1
12
18
09
1:
1;
1<
1=
1D
1M
1V
1^
1g
1p
1y
#19000000
0!
0#
0*
02
0;
0D
0M
0V
0^
0g
0p
0y
#20000000
1!
1#
b1010 %
b00001010 '
1*
b1010 .
b1010 /
b0001 0
b0101 1
12
08
19
0:
1;
0<
0=
1A
0B
1C
1D
1M
1V
1^
1g
1p
1y
#21000000
0!
0#
0*
02
0;
0D
0M
0V
0^
0g
0p
0y
#22000000
1!
1#
b1011 %
b00001011 '
1*
b1011 .
b1011 /
b0111 0
b0100 1
12
18
09
1:
1;
1<
1=
1D
1E
1F
1M
1V
1^
1g
1p
1y
#23000000
0!
0#
0*
02
0;
0D
0M
0V
0^
0g
0p
0y
#24000000
1!
1#
b1100 %
b00001100 '
1*
b1100 .
b1100 /
b0001 0
b0011 1
12
08
19
0:
1;
0<
0=
0A
1B
0C
1D
0E
0F
1J
0K
1L
1M
0N
0O
1V
1^
1g
1p
1y
#25000000
0!
0#
0*
02
0;
0D
0M
0V
0^
0g
0p
0y
#26000000
1!
1#
b1101 %
b00001101 '
1*
b1101 .
b1101 /
b0011 0
b0010 1
12
18
09
1:
1;
1<
1=
1D
1M
1V
1^
1g
1p
1y
#27000000
0!
0#
0*
02
0;
0D
0M
0V
0^
0g
0p
0y
#28000000
1!
1#
b1110 %
b00001110 '
1*
b1110 .
b1110 /
b0001 0
b0001 1
12
08
19
0:
1;
0<
0=
1A
0B
1C
1D
1M
1V
1^
1g
1p
1y
#29000000
0!
0#
0*
02
0;
0D
0M
0V
0^
0g
0p
0y
#30000000
1!
1#
b1111 %
b00001111 '
1(
1*
b1111 .
b1111 /
b1111 0
b0000 1
12
18
09
1:
1;
1<
1=
1D
1E
1F
1M
1N
1O
1V
1Y
1^
1c
1g
1l
1p
1u
1y
1!"
#31000000
0!
0#
0*
02
0;
0D
0M
0V
0^
0g
0p
0y
#32000000
1!
1#
b0000 %
b0001 &
b00010000 '
0(
1*
b0000 .
b0000 /
b0001 0
b1111 1
12
08
19
0:
1;
0<
0=
0A
1B
0C
1D
0E
0F
0J
1K
0L
1M
0N
0O
0S
1T
0U
1V
0Y
b0001 Z
b0001 [
b0011 \
b1110 ]
1^
0c
1d
0e
1f
1g
1h
1i
0l
1p
0u
1y
0!"
#33000000
0!
0#
0*
02
0;
0D
0M
0V
0^
0g
0p
0y
#34000000
1!
1#
b0001 %
b00010001 '
1*
b0001 .
b0001 /
b0011 0
b1110 1
12
18
09
1:
1;
1<
1=
1D
1M
1V
1^
1g
1p
1y
#35000000
0!
0#
0*
02
0;
0D
0M
0V
0^
0g
0p
0y
#36000000
1!
1#
b0010 %
b00010010 '
1*
b0010 .
b0010 /
b0001 0
b1101 1
12
08
19
0:
1;
0<
0=
1A
0B
1C
1D
1M
1V
1^
1g
1p
1y
#37000000
0!
0#
0*
02
0;
0D
0M
0V
0^
0g
0p
0y
#38000000
1!
1#
b0011 %
b00010011 '
1*
b0011 .
b0011 /
b0111 0
b1100 1
12
18
09
1:
1;
1<
1=
1D
1E
1F
1M
1V
1^
1g
1p
1y
#39000000
0!
0#
0*
02
0;
0D
0M
0V
0^
0g
0p
0y
#40000000
1!
1#
b0100 %
b00010100 '
1*
b0100 .
b0100 /
b0001 0
b1011 1
12
08
19
0:
1;
0<
0=
0A
1B
0C
1D
0E
0F
1J
0K
1L
1M
0N
0O
1V
1^
1g
1p
1y
#41000000
0!
0#
0*
02
0;
0D
0M
0V
0^
0g
0p
0y
#42000000
1!
1#
b0101 %
b00010101 '
1*
b0101 .
b0101 /
b0011 0
b1010 1
12
18
09
1:
1;
1<
1=
1D
1M
1V
1^
1g
1p
1y
#43000000
0!
0#
0*
02
0;
0D
0M
0V
0^
0g
0p
0y
#44000000
1!
1#
b0110 %
b00010110 '
1*
b0110 .
b0110 /
b0001 0
b1001 1
12
08
19
0:
1;
0<
0=
1A
0B
1C
1D
1M
1V
1^
1g
1p
1y
#45000000
0!
0#
0*
02
0;
0D
0M
0V
0^
0g
0p
0y
#46000000
1!
1#
b0111 %
b00010111 '
1*
b0111 .
b0111 /
b1111 0
b1000 1
12
18
09
1:
1;
1<
1=
1D
1E
1F
1M
1N
1O
1V
1^
1g
1p
1y
#47000000
0!
0#
0*
02
0;
0D
0M
0V
0^
0g
0p
0y
#48000000
1!
1#
b1000 %
b00011000 '
1*
b1000 .
b1000 /
b0001 0
b0111 1
12
08
19
0:
1;
0<
0=
0A
1B
0C
1D
0E
0F
0J
1K
0L
1M
0N
0O
1S
0T
1U
1V
1^
1g
1p
1y
#49000000
0!
0#
0*
02
0;
0D
0M
0V
0^
0g
0p
0y
#50000000
1!
1#
b1001 %
b00011001 '
1*
b1001 .
b1001 /
b0011 0
b0110 1
12
18
09
1:
1;
1<
1=
1D
1M
1V
1^
1g
1p
1y
#51000000
0!
0#
0*
02
0;
0D
0M
0V
0^
0g
0p
0y
#52000000
1!
1#
b1010 %
b00011010 '
1*
b1010 .
b1010 /
b0001 0
b0101 1
12
08
19
0:
1;
0<
0=
1A
0B
1C
1D
1M
1V
1^
1g
1p
1y
#53000000
0!
0#
0*
02
0;
0D
0M
0V
0^
0g
0p
0y
#54000000
1!
1#
b1011 %
b00011011 '
1*
b1011 .
b1011 /
b0111 0
b0100 1
12
18
09
1:
1;
1<
1=
1D
1E
1F
1M
1V
1^
1g
1p
1y
#55000000
0!
0#
0*
02
0;
0D
0M
0V
0^
0g
0p
0y
#56000000
1!
1#
b1100 %
b00011100 '
1*
b1100 .
b1100 /
b0001 0
b0011 1
12
08
19
0:
1;
0<
0=
0A
1B
0C
1D
0E
0F
1J
0K
1L
1M
0N
0O
1V
1^
1g
1p
1y
#57000000
0!
0#
0*
02
0;
0D
0M
0V
0^
0g
0p
0y
#58000000
1!
1#
b1101 %
b00011101 '
1*
b1101 .
b1101 /
b0011 0
b0010 1
12
18
09
1:
1;
1<
1=
1D
1M
1V
1^
1g
1p
1y
#59000000
0!
0#
0*
02
0;
0D
0M
0V
0^
0g
0p
0y
#60000000
1!
1#
b1110 %
b00011110 '
1*
b1110 .
b1110 /
b0001 0
b0001 1
12
08
19
0:
1;
0<
0=
1A
0B
1C
1D
1M
1V
1^
1g
1p
1y
#61000000
0!
0#
0*
02
0;
0D
0M
0V
0^
0g
0p
0y
#62000000
1!
1#
b1111 %
b00011111 '
1(
1*
b1111 .
b1111 /
b1111 0
b0000 1
12
18
09
1:
1;
1<
1=
1D
1E
1F
1M
1N
1O
1V
1Y
1^
1c
1g
1l
1p
1u
1y
1!"
#63000000
0!
0#
0*
02
0;
0D
0M
0V
0^
0g
0p
0y
#64000000
1!
1#
b0000 %
b0010 &
b00100000 '
0(
1*
b0000 .
b0000 /
b0001 0
b1111 1
12
08
19
0:
1;
0<
0=
0A
1B
0C
1D
0E
0F
0J
1K
0L
1M
0N
0O
0S
1T
0U
1V
0Y
b0010 Z
b0010 [
b0001 \
b1101 ]
1^
0c
0d
1e
0f
1g
0h
0i
0l
1m
0n
1o
1p
0u
1y
0!"
#65000000
0!
0#
0*
02
0;
0D
0M
0V
0^
0g
0p
0y
#66000000
1!
1#
b0001 %
b00100001 '
1*
b0001 .
b0001 /
b0011 0
b1110 1
12
18
09
1:
1;
1<
1=
1D
1M
1V
1^
1g
1p
1y
#67000000
0!
0#
0*
02
0;
0D
0M
0V
0^
0g
0p
0y
#68000000
1!
1#
b0010 %
b00100010 '
1*
b0010 .
b0010 /
b0001 0
b1101 1
12
08
19
0:
1;
0<
0=
1A
0B
1C
1D
1M
1V
1^
1g
1p
1y
#69000000
0!
0#
0*
02
0;
0D
0M
0V
0^
0g
0p
0y
#70000000
1!
1#
b0011 %
b00100011 '
1*
b0011 .
b0011 /
b0111 0
b1100 1
12
18
09
1:
1;
1<
1=
1D
1E
1F
1M
1V
1^
1g
1p
1y
#71000000
0!
0#
0*
02
0;
0D
0M
0V
0^
0g
0p
0y
#72000000
1!
1#
b0100 %
b00100100 '
1*
b0100 .
b0100 /
b0001 0
b1011 1
12
08
19
0:
1;
0<
0=
0A
1B
0C
1D
0E
0F
1J
0K
1L
1M
0N
0O
1V
1^
1g
1p
1y
#73000000
0!
0#
0*
02
0;
0D
0M
0V
0^
0g
0p
0y
#74000000
1!
1#
b0101 %
b00100101 '
1*
b0101 .
b0101 /
b0011 0
b1010 1
12
18
09
1:
1;
1<
1=
1D
1M
1V
1^
1g
1p
1y
#75000000
0!
0#
0*
02
0;
0D
0M
0V
0^
0g
0p
0y
#76000000
1!
1#
b0110 %
b00100110 '
1*
b0110 .
b0110 /
b0001 0
b1001 1
12
08
19
0:
1;
0<
0=
1A
0B
1C
1D
1M
1V
1^
1g
1p
1y
#77000000
0!
0#
0*
02
0;
0D
0M
0V
0^
0g
0p
0y
#78000000
1!
1#
b0111 %
b00100111 '
1*
b0111 .
b0111 /
b1111 0
b1000 1
12
18
09
1:
1;
1<
1=
1D
1E
1F
1M
1N
1O
1V
1^
1g
1p
1y
#79000000
0!
0#
0*
02
0;
0D
0M
0V
0^
0g
0p
0y
#80000000
1!
1#
b1000 %
b00101000 '
1*
b1000 .
b1000 /
b0001 0
b0111 1
12
08
19
0:
1;
0<
0=
0A
1B
0C
1D
0E
0F
0J
1K
0L
1M
0N
0O
1S
0T
1U
1V
1^
1g
1p
1y
#81000000
0!
0#
0*
02
0;
0D
0M
0V
0^
0g
0p
0y
#82000000
1!
1#
b1001 %
b00101001 '
1*
b1001 .
b1001 /
b0011 0
b0110 1
12
18
09
1:
1;
1<
1=
1D
1M
1V
1^
1g
1p
1y
#83000000
0!
0#
0*
02
0;
0D
0M
0V
0^
0g
0p
0y
#84000000
1!
1#
b1010 %
b00101010 '
1*
b1010 .
b1010 /
b0001 0
b0101 1
12
08
19
0:
1;
0<
0=
1A
0B
1C
1D
1M
1V
1^
1g
1p
1y
#85000000
0!
0#
0*
02
0;
0D
0M
0V
0^
0g
0p
0y
#86000000
1!
1#
b1011 %
b00101011 '
1*
b1011 .
b1011 /
b0111 0
b0100 1
12
18
09
1:
1;
1<
1=
1D
1E
1F
1M
1V
1^
1g
1p
1y
#87000000
0!
0#
0*
02
0;
0D
0M
0V
0^
0g
0p
0y
#88000000
1!
1#
b1100 %
b00101100 '
1*
b1100 .
b1100 /
b0001 0
b0011 1
12
08
19
0:
1;
0<
0=
0A
1B
0C
1D
0E
0F
1J
0K
1L
1M
0N
0O
1V
1^
1g
1p
1y
#89000000
0!
0#
0*
02
0;
0D
0M
0V
0^
0g
0p
0y
#90000000
1!
1#
b1101 %
b00101101 '
1*
b1101 .
b1101 /
b0011 0
b0010 1
12
18
09
1:
1;
1<
1=
1D
1M
1V
1^
1g
1p
1y
#91000000
0!
0#
0*
02
0;
0D
0M
0V
0^
0g
0p
0y
#92000000
1!
1#
b1110 %
b00101110 '
1*
b1110 .
b1110 /
b0001 0
b0001 1
12
08
19
0:
1;
0<
0=
1A
0B
1C
1D
1M
1V
1^
1g
1p
1y
#93000000
0!
0#
0*
02
0;
0D
0M
0V
0^
0g
0p
0y
#94000000
1!
1#
b1111 %
b00101111 '
1(
1*
b1111 .
b1111 /
b1111 0
b0000 1
12
18
09
1:
1;
1<
1=
1D
1E
1F
1M
1N
1O
1V
1Y
1^
1c
1g
1l
1p
1u
1y
1!"
#95000000
0!
0#
0*
02
0;
0D
0M
0V
0^
0g
0p
0y
#96000000
1!
1#
b0000 %
b0011 &
b00110000 '
0(
1*
b0000 .
b0000 /
b0001 0
b1111 1
12
08
19
0:
1;
0<
0=
0A
1B
0C
1D
0E
0F
0J
1K
0L
1M
0N
0O
0S
1T
0U
1V
0Y
b0011 Z
b0011 [
b0111 \
b1100 ]
1^
0c
1d
0e
1f
1g
1h
1i
0l
1p
1q
1r
0u
1y
0!"
#97000000
0!
0#
0*
02
0;
0D
0M
0V
0^
0g
0p
0y
#98000000
1!
1#
b0001 %
b00110001 '
1*
b0001 .
b0001 /
b0011 0
b1110 1
12
18
09
1:
1;
1<
1=
1D
1M
1V
1^
1g
1p
1y
#99000000
0!
0#
0*
02
0;
0D
0M
0V
0^
0g
0p
0y
#100000000
1!
1#
b0010 %
b00110010 '
1*
b0010 .
b0010 /
b0001 0
b1101 1
12
08
19
0:
1;
0<
0=
1A
0B
1C
1D
1M
1V
1^
1g
1p
1y
#101000000
0!
0#
0*
02
0;
0D
0M
0V
0^
0g
0p
0y
#102000000
1!
1#
b0011 %
b00110011 '
1*
b0011 .
b0011 /
b0111 0
b1100 1
12
18
09
1:
1;
1<
1=
1D
1E
1F
1M
1V
1^
1g
1p
1y
#103000000
0!
0#
0*
02
0;
0D
0M
0V
0^
0g
0p
0y
#104000000
1!
1#
b0100 %
b00110100 '
1*
b0100 .
b0100 /
b0001 0
b1011 1
12
08
19
0:
1;
0<
0=
0A
1B
0C
1D
0E
0F
1J
0K
1L
1M
0N
0O
1V
1^
1g
1p
1y
#105000000
0!
0#
0*
02
0;
0D
0M
0V
0^
0g
0p
0y
#106000000
1!
1#
b0101 %
b00110101 '
1*
b0101 .
b0101 /
b0011 0
b1010 1
12
18
09
1:
1;
1<
1=
1D
1M
1V
1^
1g
1p
1y
#107000000
0!
0#
0*
02
0;
0D
0M
0V
0^
0g
0p
0y
#108000000
1!
1#
b0110 %
b00110110 '
1*
b0110 .
b0110 /
b0001 0
b1001 1
12
08
19
0:
1;
0<
0=
1A
0B
1C
1D
1M
1V
1^
1g
1p
1y
#109000000
0!
0#
0*
02
0;
0D
0M
0V
0^
0g
0p
0y
#110000000
1!
1#
b0111 %
b00110111 '
1*
b0111 .
b0111 /
b1111 0
b1000 1
12
18
09
1:
1;
1<
1=
1D
1E
1F
1M
1N
1O
1V
1^
1g
1p
1y
#111000000
0!
0#
0*
02
0;
0D
0M
0V
0^
0g
0p
0y
#112000000
1!
1#
b1000 %
b00111000 '
1*
b1000 .
b1000 /
b0001 0
b0111 1
12
08
19
0:
1;
0<
0=
0A
1B
0C
1D
0E
0F
0J
1K
0L
1M
0N
0O
1S
0T
1U
1V
1^
1g
1p
1y
#113000000
0!
0#
0*
02
0;
0D
0M
0V
0^
0g
0p
0y
#114000000
1!
1#
b1001 %
b00111001 '
1*
b1001 .
b1001 /
b0011 0
b0110 1
12
18
09
1:
1;
1<
1=
1D
1M
1V
1^
1g
1p
1y
#115000000
0!
0#
0*
02
0;
0D
0M
0V
0^
0g
0p
0y
#116000000
1!
1#
b1010 %
b00111010 '
1*
b1010 .
b1010 /
b0001 0
b0101 1
12
08
19
0:
1;
0<
0=
1A
0B
1C
1D
1M
1V
1^
1g
1p
1y
#117000000
0!
0#
0*
02
0;
0D
0M
0V
0^
0g
0p
0y
#118000000
1!
1"
1#
1$
b1011 %
b00111011 '
1*
b1011 .
b1011 /
b0111 0
b0100 1
12
18
09
1:
1;
1<
1=
1D
1E
1F
1M
1V
1^
1g
1p
1y
#119000000
0!
0#
0*
02
0;
0D
0M
0V
0^
0g
0p
0y
#120000000
1!
0"
1#
0$
b0000 %
b0000 &
b00000000 '
1)
1*
1+
b0000 .
b0000 /
b0001 0
b1111 1
12
16
08
19
0:
1;
0<
0=
1?
0A
1B
0C
1D
0E
0F
1H
0J
1K
0L
1M
0N
0O
1Q
0S
1T
0U
1V
1W
b0000 Z
b0000 [
b0001 \
b1111 ]
1^
1b
0d
1e
0f
1g
0h
0i
1k
0m
1n
0o
1p
0q
0r
1t
1y
1}
#121000000
0!
0#
0*
02
0;
0D
0M
0V
0^
0g
0p
0y
#122000000
1!
1#
b0001 %
b00000001 '
1*
b0001 .
b0001 /
b0011 0
b1110 1
12
18
09
1:
1;
1<
1=
1D
1M
1V
1^
1g
1p
1y
#123000000
0!
0#
0*
02
0;
0D
0M
0V
0^
0g
0p
0y
#124000000
1!
1#
b0010 %
b00000010 '
1*
b0010 .
b0010 /
b0001 0
b1101 1
12
08
19
0:
1;
0<
0=
1A
0B
1C
1D
1M
1V
1^
1g
1p
1y
#125000000
0!
0#
0*
02
0;
0D
0M
0V
0^
0g
0p
0y
#126000000
1!
1#
b0011 %
b00000011 '
1*
b0011 .
b0011 /
b0111 0
b1100 1
12
18
09
1:
1;
1<
1=
1D
1E
1F
1M
1V
1^
1g
1p
1y
#127000000
0!
0#
0*
02
0;
0D
0M
0V
0^
0g
0p
0y
#128000000
1!
1#
b0100 %
b00000100 '
1*
b0100 .
b0100 /
b0001 0
b1011 1
12
08
19
0:
1;
0<
0=
0A
1B
0C
1D
0E
0F
1J
0K
1L
1M
0N
0O
1V
1^
1g
1p
1y
#129000000
0!
0#
0*
02
0;
0D
0M
0V
0^
0g
0p
0y
#130000000
1!
1#
b0101 %
b00000101 '
1*
b0101 .
b0101 /
b0011 0
b1010 1
12
18
09
1:
1;
1<
1=
1D
1M
1V
1^
1g
1p
1y
#131000000
0!
0#
0*
02
0;
0D
0M
0V
0^
0g
0p
0y
#132000000
1!
1#
b0110 %
b00000110 '
1*
b0110 .
b0110 /
b0001 0
b1001 1
12
08
19
0:
1;
0<
0=
1A
0B
1C
1D
1M
1V
1^
1g
1p
1y
#133000000
0!
0#
0*
02
0;
0D
0M
0V
0^
0g
0p
0y
#134000000
1!
1#
b0111 %
b00000111 '
1*
b0111 .
b0111 /
b1111 0
b1000 1
12
18
09
1:
1;
1<
1=
1D
1E
1F
1M
1N
1O
1V
1^
1g
1p
1y
#135000000
0!
0#
0*
02
0;
0D
0M
0V
0^
0g
0p
0y
#136000000
1!
1#
b1000 %
b00001000 '
1*
b1000 .
b1000 /
b0001 0
b0111 1
12
08
19
0:
1;
0<
0=
0A
1B
0C
1D
0E
0F
0J
1K
0L
1M
0N
0O
1S
0T
1U
1V
1^
1g
1p
1y
#137000000
0!
0#
0*
02
0;
0D
0M
0V
0^
0g
0p
0y
#138000000
1!
1#
b1001 %
b00001001 '
1*
b1001 .
b1001 /
b0011 0
b0110 1
12
18
09
1:
1;
1<
1=
1D
1M
1V
1^
1g
1p
1y
#139000000
0!
0#
0*
02
0;
0D
0M
0V
0^
0g
0p
0y
#140000000
1!
1#
b1010 %
b00001010 '
1*
b1010 .
b1010 /
b0001 0
b0101 1
12
08
19
0:
1;
0<
0=
1A
0B
1C
1D
1M
1V
1^
1g
1p
1y
#141000000
0!
0#
0*
02
0;
0D
0M
0V
0^
0g
0p
0y
#142000000
1!
1#
b1011 %
b00001011 '
1*
b1011 .
b1011 /
b0111 0
b0100 1
12
18
09
1:
1;
1<
1=
1D
1E
1F
1M
1V
1^
1g
1p
1y
#143000000
0!
0#
0*
02
0;
0D
0M
0V
0^
0g
0p
0y
#144000000
1!
1#
b1100 %
b00001100 '
1*
b1100 .
b1100 /
b0001 0
b0011 1
12
08
19
0:
1;
0<
0=
0A
1B
0C
1D
0E
0F
1J
0K
1L
1M
0N
0O
1V
1^
1g
1p
1y
#145000000
0!
0#
0*
02
0;
0D
0M
0V
0^
0g
0p
0y
#146000000
1!
1#
b1101 %
b00001101 '
1*
b1101 .
b1101 /
b0011 0
b0010 1
12
18
09
1:
1;
1<
1=
1D
1M
1V
1^
1g
1p
1y
#147000000
0!
0#
0*
02
0;
0D
0M
0V
0^
0g
0p
0y
#148000000
1!
1#
b1110 %
b00001110 '
1*
b1110 .
b1110 /
b0001 0
b0001 1
12
08
19
0:
1;
0<
0=
1A
0B
1C
1D
1M
1V
1^
1g
1p
1y
#149000000
0!
0#
0*
02
0;
0D
0M
0V
0^
0g
0p
0y
#150000000
1!
1#
b1111 %
b00001111 '
1(
1*
b1111 .
b1111 /
b1111 0
b0000 1
12
18
09
1:
1;
1<
1=
1D
1E
1F
1M
1N
1O
1V
1Y
1^
1c
1g
1l
1p
1u
1y
1!"
#151000000
0!
0#
0*
02
0;
0D
0M
0V
0^
0g
0p
0y
#152000000
1!
1#
b0000 %
b0001 &
b00010000 '
0(
1*
b0000 .
b0000 /
b0001 0
b1111 1
12
08
19
0:
1;
0<
0=
0A
1B
0C
1D
0E
0F
0J
1K
0L
1M
0N
0O
0S
1T
0U
1V
0Y
b0001 Z
b0001 [
b0011 \
b1110 ]
1^
0c
1d
0e
1f
1g
1h
1i
0l
1p
0u
1y
0!"
#153000000
0!
0#
0*
02
0;
0D
0M
0V
0^
0g
0p
0y
#154000000
1!
1#
b0001 %
b00010001 '
1*
b0001 .
b0001 /
b0011 0
b1110 1
12
18
09
1:
1;
1<
1=
1D
1M
1V
1^
1g
1p
1y
#155000000
0!
0#
0*
02
0;
0D
0M
0V
0^
0g
0p
0y
#156000000
1!
1#
b0010 %
b00010010 '
1*
b0010 .
b0010 /
b0001 0
b1101 1
12
08
19
0:
1;
0<
0=
1A
0B
1C
1D
1M
1V
1^
1g
1p
1y
#157000000
0!
0#
0*
02
0;
0D
0M
0V
0^
0g
0p
0y
#158000000
1!
1#
b0011 %
b00010011 '
1*
b0011 .
b0011 /
b0111 0
b1100 1
12
18
09
1:
1;
1<
1=
1D
1E
1F
1M
1V
1^
1g
1p
1y
#159000000
0!
0#
0*
02
0;
0D
0M
0V
0^
0g
0p
0y
#160000000
1!
1#
b0100 %
b00010100 '
1*
b0100 .
b0100 /
b0001 0
b1011 1
12
08
19
0:
1;
0<
0=
0A
1B
0C
1D
0E
0F
1J
0K
1L
1M
0N
0O
1V
1^
1g
1p
1y
#161000000
0!
0#
0*
02
0;
0D
0M
0V
0^
0g
0p
0y
#162000000
1!
1#
b0101 %
b00010101 '
1*
b0101 .
b0101 /
b0011 0
b1010 1
12
18
09
1:
1;
1<
1=
1D
1M
1V
1^
1g
1p
1y
#163000000
0!
0#
0*
02
0;
0D
0M
0V
0^
0g
0p
0y
#164000000
1!
1#
b0110 %
b00010110 '
1*
b0110 .
b0110 /
b0001 0
b1001 1
12
08
19
0:
1;
0<
0=
1A
0B
1C
1D
1M
1V
1^
1g
1p
1y
#165000000
0!
0#
0*
02
0;
0D
0M
0V
0^
0g
0p
0y
#166000000
1!
1#
b0111 %
b00010111 '
1*
b0111 .
b0111 /
b1111 0
b1000 1
12
18
09
1:
1;
1<
1=
1D
1E
1F
1M
1N
1O
1V
1^
1g
1p
1y
#167000000
0!
0#
0*
02
0;
0D
0M
0V
0^
0g
0p
0y
#168000000
1!
1#
b1000 %
b00011000 '
1*
b1000 .
b1000 /
b0001 0
b0111 1
12
08
19
0:
1;
0<
0=
0A
1B
0C
1D
0E
0F
0J
1K
0L
1M
0N
0O
1S
0T
1U
1V
1^
1g
1p
1y
#169000000
0!
0#
0*
02
0;
0D
0M
0V
0^
0g
0p
0y
#170000000
1!
1#
b1001 %
b00011001 '
1*
b1001 .
b1001 /
b0011 0
b0110 1
12
18
09
1:
1;
1<
1=
1D
1M
1V
1^
1g
1p
1y
#171000000
0!
0#
0*
02
0;
0D
0M
0V
0^
0g
0p
0y
#172000000
1!
1#
b1010 %
b00011010 '
1*
b1010 .
b1010 /
b0001 0
b0101 1
12
08
19
0:
1;
0<
0=
1A
0B
1C
1D
1M
1V
1^
1g
1p
1y
#173000000
0!
0#
0*
02
0;
0D
0M
0V
0^
0g
0p
0y
#174000000
1!
1#
b1011 %
b00011011 '
1*
b1011 .
b1011 /
b0111 0
b0100 1
12
18
09
1:
1;
1<
1=
1D
1E
1F
1M
1V
1^
1g
1p
1y
#175000000
0!
0#
0*
02
0;
0D
0M
0V
0^
0g
0p
0y
